22

26 24
5
f 12 15 w
t 6 17 s
t 8 12 s
r 0 8 n
r 13 14 n
32 15

37 59
9
t 17 42 n
t 21 28 s
t 3 45 n
r 12 57 e
t 5 14 s
t 36 40 s
f 24 38 n
h 5 55 s
r 11 31 w
52 9

13 38
11
h 3 14 n
h 2 12 w
r 1 31 e
f 12 32 w
f 3 7 w
t 4 36 s
r 9 4 e
h 3 0 w
r 0 18 n
h 1 11 e
f 4 32 e
5 8

50 27
5
t 31 13 n
r 4 16 s
h 13 2 s
f 45 15 n
h 38 19 e
1 11

24 47
15
t 10 35 s
f 6 8 e
r 12 20 w
t 16 22 s
h 14 26 e
t 7 9 n
r 20 35 s
f 21 1 w
f 11 2 n
r 7 33 w
h 20 1 s
t 4 31 w
t 3 18 n
f 15 6 w
t 0 13 n
89 7

50 44
8
h 29 37 w
h 35 35 s
r 25 5 w
t 34 20 s
t 35 1 w
t 38 16 e
t 44 25 w
t 24 33 w
104 10

59 5
9
r 7 0 n
f 24 3 w
h 22 0 e
r 52 2 e
h 25 4 e
f 28 4 w
t 40 3 n
h 56 1 n
h 51 2 e
104 10

13 30
6
t 11 16 w
f 7 7 s
h 6 13 w
t 11 17 n
h 6 0 w
f 9 17 n
90 14

55 12
8
t 38 3 e
h 14 2 w
h 43 7 s
t 16 0 n
f 41 7 s
t 54 4 s
t 25 11 e
f 23 1 w
129 12

48 51
1
h 31 20 w
84 12

17 15
2
h 6 8 n
f 9 8 w
79 20

53 28
4
f 50 13 e
r 3 11 s
t 52 1 w
f 6 16 n
19 8

18 60
7
r 15 42 w
t 11 26 n
t 9 55 n
f 12 58 n
f 2 54 s
r 15 45 s
r 11 12 w
19 12

22 60
6
h 17 37 w
h 14 28 e
h 1 35 n
f 19 51 w
f 17 48 n
t 17 33 e
57 11

5 57
15
f 1 8 s
h 0 41 e
h 3 3 s
r 4 6 s
t 3 35 s
f 3 42 w
f 2 37 s
h 1 41 n
f 4 50 w
f 3 56 e
h 2 54 n
t 3 17 w
h 1 42 n
f 4 11 s
h 0 29 w
77 5

25 37
1
f 17 5 s
108 12

13 34
3
t 10 10 e
r 5 14 s
h 9 8 n
14 11

40 6
15
h 17 3 s
h 16 0 n
r 15 2 w
f 3 3 w
f 6 0 n
t 38 2 e
r 27 3 n
t 31 1 s
t 1 4 n
t 17 5 s
t 8 5 w
f 20 0 w
f 10 5 w
t 6 5 e
h 16 0 e
187 11

47 34
4
t 31 11 s
t 6 15 s
f 42 11 s
f 12 27 n
61 17

43 51
7
h 34 13 e
r 24 5 w
r 13 44 n
r 17 9 w
h 42 43 n
t 22 25 s
h 34 25 n
98 12

23 15
10
h 1 5 s
r 9 10 s
h 17 11 n
f 19 0 w
f 19 3 w
f 8 9 w
h 13 13 w
t 14 0 n
h 15 10 s
t 22 7 s
97 6

6 13
2
r 5 5 e
r 1 9 e
69 6
