*** Darwin 3x9 ***
Turn = 0.
  012345678
0 .f.......
1 ....r....
2 .....h...

Turn = 4.
  012345678
0 .f...h...
1 ........r
2 .........

Turn = 8.
  012345678
0 .f...h...
1 .........
2 ........r

Turn = 12.
  012345678
0 .f...h...
1 .........
2 .....r...

Turn = 16.
  012345678
0 .f...h...
1 .........
2 .r.......

Turn = 20.
  012345678
0 rf...h...
1 .........
2 .........

Turn = 24.
  012345678
0 r....h...
1 .........
2 .r.......

Turn = 28.
  012345678
0 ....rh...
1 .........
2 r........

Turn = 32.
  012345678
0 r........
1 .........
2 ....rr...

Turn = 36.
  012345678
0 .........
1 .........
2 r....r..r

Turn = 40.
  012345678
0 r.......r
1 .........
2 ........r

Turn = 44.
  012345678
0 ..r.r....
1 .........
2 .....r...

Turn = 48.
  012345678
0 ..r......
1 .........
2 .r..r....

Turn = 52.
  012345678
0 r........
1 r........
2 r........

Turn = 56.
  012345678
0 .........
1 r...r....
2 ..r......

Turn = 60.
  012345678
0 r........
1 ........r
2 ......r..

Turn = 64.
  012345678
0 .......r.
1 .........
2 r......r.

Turn = 68.
  012345678
0 ........r
1 .........
2 ...rr....

Turn = 72.
  012345678
0 ....r....
1 .........
2 ..r....r.

Turn = 76.
  012345678
0 r........
1 .........
2 r......r.

Turn = 80.
  012345678
0 r........
1 .........
2 ...rr....

Turn = 84.
  012345678
0 ....r....
1 .........
2 r......r.

Turn = 88.
  012345678
0 r.......r
1 ........r
2 .........

Turn = 92.
  012345678
0 ....r...r
1 ....r....
2 .........

Turn = 96.
  012345678
0 .......r.
1 r.......r
2 .........

Turn = 100.
  012345678
0 r...r....
1 .........
2 ......r..

Turn = 104.
  012345678
0 r........
1 .........
2 r.r......

Turn = 108.
  012345678
0 .........
1 .r.......
2 r.r......

Turn = 112.
  012345678
0 .........
1 .....r...
2 .r....r..

Turn = 116.
  012345678
0 .........
1 ........r
2 .....r..r

Turn = 120.
  012345678
0 ........r
1 .....r...
2 ........r

Turn = 124.
  012345678
0 ......r.r
1 .r.......
2 .........

Turn = 128.
  012345678
0 r.r..r...
1 .........
2 .........

Turn = 132.
  012345678
0 r..r.....
1 ..r......
2 .........

Turn = 136.
  012345678
0 ..r....r.
1 .........
2 r........

Turn = 140.
  012345678
0 r.....r..
1 .........
2 ........r

Turn = 144.
  012345678
0 ....r...r
1 .........
2 .....r...

Turn = 148.
  012345678
0 ........r
1 .........
2 .r......r

Turn = 152.
  012345678
0 r........
1 ........r
2 ........r

Turn = 156.
  012345678
0 ...r.....
1 .....r...
2 ....r....

Turn = 160.
  012345678
0 .......r.
1 .r.......
2 r........

Turn = 164.
  012345678
0 ........r
1 rr.......
2 .........

Turn = 168.
  012345678
0 .........
1 r....r...
2 ........r

Turn = 172.
  012345678
0 .........
1 r.......r
2 .....r...

Turn = 176.
  012345678
0 .........
1 r........
2 .r......r

Turn = 180.
  012345678
0 .r......r
1 .........
2 ..r......

Turn = 184.
  012345678
0 ....r....
1 .........
2 r.....r..

Turn = 188.
  012345678
0 r........
1 .........
2 r.......r

Turn = 192.
  012345678
0 r........
1 r........
2 ....r....

Turn = 196.
  012345678
0 r........
1 ....r....
2 r........

Turn = 200.
  012345678
0 r.r......
1 ........r
2 .........

Turn = 204.
  012345678
0 ....r.r..
1 .........
2 ........r

Turn = 208.
  012345678
0 .......rr
1 ........r
2 .........

Turn = 212.
  012345678
0 ......r..
1 ......r..
2 ........r

Turn = 216.
  012345678
0 ..r.....r
1 ..r......
2 .........

Turn = 220.
  012345678
0 r...r....
1 .........
2 r........

Turn = 224.
  012345678
0 r.rr.....
1 .........
2 .........

Turn = 228.
  012345678
0 .r..r....
1 .........
2 ..r......

Turn = 232.
  012345678
0 ........r
1 r........
2 r........

Turn = 236.
  012345678
0 .r....r..
1 .........
2 ..r......

Turn = 240.
  012345678
0 ....r....
1 ...r.....
2 ......r..

Turn = 244.
  012345678
0 r........
1 .........
2 .....r..r

Turn = 248.
  012345678
0 .........
1 .......r.
2 r.......r

Turn = 252.
  012345678
0 .....r...
1 .........
2 ....r.r..

Turn = 256.
  012345678
0 .r....r..
1 .........
2 ......r..

Turn = 260.
  012345678
0 r.r......
1 ........r
2 .........

Turn = 264.
  012345678
0 ......r..
1 r........
2 r........

Turn = 268.
  012345678
0 ..r......
1 ...r.....
2 ...r.....

Turn = 272.
  012345678
0 .........
1 r......r.
2 .......r.

Turn = 276.
  012345678
0 ........r
1 ........r
2 r........

Turn = 280.
  012345678
0 ....r....
1 ....r....
2 ....r....

Turn = 284.
  012345678
0 r........
1 r........
2 ........r

Turn = 288.
  012345678
0 r.......r
1 ..r......
2 .........

Turn = 292.
  012345678
0 ....r...r
1 ......r..
2 .........

Turn = 296.
  012345678
0 ........r
1 ......r..
2 ........r

Turn = 300.
  012345678
0 ........r
1 .........
2 ....rr...

Turn = 304.
  012345678
0 ....r....
1 .........
2 rr.......

Turn = 308.
  012345678
0 rr.......
1 .........
2 ...r.....

Turn = 312.
  012345678
0 .........
1 .........
2 r.r....r.

Turn = 316.
  012345678
0 ........r
1 .........
2 ....r.r..

Turn = 320.
  012345678
0 .....r...
1 .........
2 .......rr

Turn = 324.
  012345678
0 .r......r
1 .........
2 ....r....

Turn = 328.
  012345678
0 ......r..
1 .........
2 rr.......

Turn = 332.
  012345678
0 r.r......
1 .........
2 .r.......

Turn = 336.
  012345678
0 rr.......
1 .........
2 .....r...

Turn = 340.
  012345678
0 ....r....
1 .........
2 r.......r

Turn = 344.
  012345678
0 r......rr
1 .........
2 .........

Turn = 348.
  012345678
0 .........
1 .........
2 r.....r.r

Turn = 352.
  012345678
0 .......r.
1 .........
2 ...rr....

Turn = 356.
  012345678
0 ..rr.....
1 .........
2 r........

Turn = 360.
  012345678
0 r........
1 rr.......
2 .........

Turn = 364.
  012345678
0 ....r....
1 .........
2 rr.......

Turn = 368.
  012345678
0 ........r
1 .........
2 ..r..r...

Turn = 372.
  012345678
0 .........
1 .......r.
2 ......r.r

Turn = 376.
  012345678
0 .....r..r
1 .........
2 ......r..

Turn = 380.
  012345678
0 .r....r..
1 .........
2 ..r......

Turn = 384.
  012345678
0 r.r......
1 .........
2 r........

Turn = 388.
  012345678
0 r.r......
1 .........
2 ..r......

Turn = 392.
  012345678
0 ......r..
1 .........
2 r.....r..

Turn = 396.
  012345678
0 .r.......
1 ........r
2 ........r

Turn = 400.
  012345678
0 .....r..r
1 .....r...
2 .........

Turn = 404.
  012345678
0 .........
1 .r.......
2 ......rr.

Turn = 408.
  012345678
0 ......r..
1 .........
2 r.......r

Turn = 412.
  012345678
0 ...r.....
1 ........r
2 ....r....

Turn = 416.
  012345678
0 r.....r..
1 .........
2 ........r

Turn = 420.
  012345678
0 ..r.....r
1 .........
2 .r.......

Turn = 424.
  012345678
0 r........
1 ........r
2 .....r...

Turn = 428.
  012345678
0 .........
1 ........r
2 r......r.

Turn = 432.
  012345678
0 ......r..
1 .........
2 ...rr....

Turn = 436.
  012345678
0 ...r.....
1 ....r....
2 .r.......

Turn = 440.
  012345678
0 r........
1 ....r....
2 ..r......

Turn = 444.
  012345678
0 ......r..
1 r........
2 r........

Turn = 448.
  012345678
0 .........
1 ....r...r
2 r........

Turn = 452.
  012345678
0 .........
1 ........r
2 ....r...r

Turn = 456.
  012345678
0 ........r
1 .......r.
2 ........r

Turn = 460.
  012345678
0 .....r..r
1 ...r.....
2 .........

Turn = 464.
  012345678
0 .r..r....
1 r........
2 .........

Turn = 468.
  012345678
0 rr.......
1 ...r.....
2 .........

Turn = 472.
  012345678
0 ...r.....
1 .......r.
2 ..r......

Turn = 476.
  012345678
0 .......r.
1 .........
2 ......r.r

Turn = 480.
  012345678
0 .........
1 ........r
2 .......rr

Turn = 484.
  012345678
0 ........r
1 .........
2 ....r...r

Turn = 488.
  012345678
0 .........
1 .........
2 r...r..r.

Turn = 492.
  012345678
0 .........
1 ..r......
2 .r.r.....

Turn = 496.
  012345678
0 ....r....
1 .........
2 rr.......

Turn = 500.
  012345678
0 .r......r
1 .........
2 ..r......

Turn = 504.
  012345678
0 r.......r
1 .........
2 ......r..

Turn = 508.
  012345678
0 .r..r....
1 .........
2 ........r

Turn = 512.
  012345678
0 .........
1 .........
2 ..rrr....

Turn = 516.
  012345678
0 ....r....
1 .........
2 r...r....

Turn = 520.
  012345678
0 r........
1 .........
2 ...r....r

Turn = 524.
  012345678
0 r.......r
1 .........
2 .......r.

Turn = 528.
  012345678
0 ....r...r
1 .........
2 r........

Turn = 532.
  012345678
0 r....r...
1 .........
2 ....r....

Turn = 536.
  012345678
0 .r.......
1 .........
2 r.......r

Turn = 540.
  012345678
0 ........r
1 .........
2 r...r....

Turn = 544.
  012345678
0 ........r
1 .........
2 ...r....r

Turn = 548.
  012345678
0 .........
1 ........r
2 ......rr.

Turn = 552.
  012345678
0 .....r...
1 .........
2 .......rr

Turn = 556.
  012345678
0 .r......r
1 .........
2 ....r....

Turn = 560.
  012345678
0 r........
1 ........r
2 r........

Turn = 564.
  012345678
0 .........
1 ........r
2 r.r......

Turn = 568.
  012345678
0 ......r..
1 .........
2 r.....r..

Turn = 572.
  012345678
0 .rr......
1 .........
2 ........r

Turn = 576.
  012345678
0 .r..r....
1 .........
2 ....r....

Turn = 580.
  012345678
0 .....r..r
1 .........
2 r........

Turn = 584.
  012345678
0 r.......r
1 .........
2 ........r

Turn = 588.
  012345678
0 ....r....
1 .........
2 ......r.r

Turn = 592.
  012345678
0 ........r
1 .........
2 ..r.....r

Turn = 596.
  012345678
0 .........
1 r.....r.r
2 .........

Turn = 600.
  012345678
0 ..r......
1 ..r......
2 ......r..

Turn = 604.
  012345678
0 ......r..
1 .........
2 r.r......

Turn = 608.
  012345678
0 .r.......
1 ........r
2 r........

Turn = 612.
  012345678
0 r........
1 r........
2 ......r..

Turn = 616.
  012345678
0 r........
1 .........
2 r.r......

Turn = 620.
  012345678
0 r...r....
1 r........
2 .........

Turn = 624.
  012345678
0 ...r....r
1 ...r.....
2 .........

Turn = 628.
  012345678
0 .......r.
1 .......r.
2 ........r

Turn = 632.
  012345678
0 .......r.
1 .......r.
2 ....r....

Turn = 636.
  012345678
0 ...r.....
1 ...r.....
2 r........

Turn = 640.
  012345678
0 r........
1 r........
2 .r.......

Turn = 644.
  012345678
0 .........
1 ...r.....
2 r...r....

Turn = 648.
  012345678
0 .........
1 .......r.
2 ...r....r

Turn = 652.
  012345678
0 ........r
1 ........r
2 .......r.

Turn = 656.
  012345678
0 ....r.r..
1 .........
2 .......r.

Turn = 660.
  012345678
0 r.r......
1 .........
2 ...r.....

Turn = 664.
  012345678
0 .........
1 r........
2 rr.......

Turn = 668.
  012345678
0 .r.......
1 r........
2 .r.......

Turn = 672.
  012345678
0 r........
1 .........
2 ..r..r...

Turn = 676.
  012345678
0 ....r....
1 .........
2 ......r.r

Turn = 680.
  012345678
0 ........r
1 .........
2 .......rr

Turn = 684.
  012345678
0 ......r.r
1 .........
2 ....r....

Turn = 688.
  012345678
0 ..r....r.
1 .........
2 r........

*** Darwin 5x1 ***
Turn = 0.
  0
0 t
1 .
2 f
3 .
4 h

Turn = 104.
  0
0 t
1 .
2 f
3 .
4 h

Turn = 208.
  0
0 t
1 .
2 f
3 .
4 h

Turn = 312.
  0
0 t
1 .
2 f
3 .
4 h

Turn = 416.
  0
0 t
1 .
2 f
3 .
4 h

Turn = 520.
  0
0 t
1 .
2 f
3 .
4 h

Turn = 624.
  0
0 t
1 .
2 f
3 .
4 h

Turn = 728.
  0
0 t
1 .
2 f
3 .
4 h

Turn = 832.
  0
0 t
1 .
2 f
3 .
4 h

Turn = 936.
  0
0 t
1 .
2 f
3 .
4 h

Turn = 1040.
  0
0 t
1 .
2 f
3 .
4 h

Turn = 1144.
  0
0 t
1 .
2 f
3 .
4 h

Turn = 1248.
  0
0 t
1 .
2 f
3 .
4 h

Turn = 1352.
  0
0 t
1 .
2 f
3 .
4 h

Turn = 1456.
  0
0 t
1 .
2 f
3 .
4 h

Turn = 1560.
  0
0 t
1 .
2 f
3 .
4 h

Turn = 1664.
  0
0 t
1 .
2 f
3 .
4 h

*** Darwin 17x10 ***
Turn = 0.
  0123456789
0 ....r...f.
1 .....h....
2 r..f....r.
3 ..f......h
4 ....r.....
5 ..........
6 .t........
7 .......h..
8 .r........
9 ..........
0 ..........
1 ..........
2 .hf.......
3 ..f.....r.
4 ....h.....
5 ..h.......
6 ..........

Turn = 52.
  0123456789
0 .r........
1 ...r......
2 ..........
3 .rr.......
4 .........r
5 .r......r.
6 ..........
7 t.r.....r.
8 t.........
9 t.......rr
0 ..........
1 .........r
2 ..........
3 ..........
4 ......r...
5 r....r....
6 ..........

Turn = 104.
  0123456789
0 r....rr..r
1 ..........
2 ..........
3 ....r.....
4 r.........
5 ..........
6 ..........
7 r.......rr
8 ........r.
9 ..........
0 r........r
1 r.......r.
2 ......rrr.
3 ..........
4 ..........
5 ..........
6 ......r...

Turn = 156.
  0123456789
0 ..rrrr..r.
1 ..........
2 ..........
3 rr........
4 ..........
5 ..........
6 ..r.......
7 ...r......
8 r.........
9 ..........
0 .......r..
1 r.....r...
2 ..........
3 ........r.
4 .........r
5 .........r
6 .r....r...

Turn = 208.
  0123456789
0 .r....r...
1 ........r.
2 .r........
3 r.........
4 ..........
5 rr........
6 ..........
7 ..........
8 r.........
9 r.....r...
0 ...r......
1 .........r
2 .........r
3 ..........
4 r.........
5 .....r....
6 r...r....r

Turn = 260.
  0123456789
0 .rr......r
1 r.r.......
2 ...r....r.
3 ..........
4 .....rr...
5 ..........
6 .....r....
7 .........r
8 .......r..
9 ..........
0 ..........
1 ..........
2 .......r..
3 r.........
4 ..r.......
5 r.........
6 ....r.r...

Turn = 312.
  0123456789
0 ........r.
1 r.......rr
2 .......r..
3 ..........
4 ......r...
5 r.........
6 ....r....r
7 ...r......
8 ..........
9 ..........
0 ..........
1 .....r....
2 ......r.r.
3 ......r..r
4 ........r.
5 .....r.r..
6 ..........

Turn = 364.
  0123456789
0 ...r..rr..
1 ..........
2 .......r..
3 ........r.
4 ..........
5 ..........
6 ..........
7 ..........
8 .........r
9 ....r.....
0 .....rr...
1 r......r..
2 ..........
3 r.........
4 r.........
5 ...r....rr
6 ...r.....r

Turn = 416.
  0123456789
0 r.r.r...r.
1 rr..r.....
2 ..........
3 ..........
4 ......r...
5 r........r
6 ........r.
7 ..........
8 .....rr...
9 ..........
0 ..........
1 ..........
2 ..........
3 ..........
4 rr........
5 r..r......
6 ......r...

Turn = 468.
  0123456789
0 r...r..r..
1 ..........
2 ..........
3 ......r...
4 .........r
5 r........r
6 .........r
7 ....r.....
8 ..........
9 .......rr.
0 ........r.
1 ..........
2 ..........
3 .....r.r..
4 r.........
5 .........r
6 r........r

Turn = 520.
  0123456789
0 ..r.......
1 ..........
2 ..........
3 .r........
4 ....r.....
5 ..........
6 .........r
7 ..........
8 ........r.
9 .........r
0 .rr......r
1 ..........
2 .........r
3 ..........
4 ...r......
5 r..r......
6 rr..rr...r

Turn = 572.
  0123456789
0 ........r.
1 .........r
2 r.....r...
3 ..........
4 ..........
5 ..........
6 .r......r.
7 .....r.r..
8 .........r
9 r.......r.
0 r.........
1 ..........
2 r.........
3 .....r..r.
4 r.........
5 ....r.....
6 ........r.

Turn = 624.
  0123456789
0 ....rr..r.
1 ........r.
2 ..........
3 ..........
4 ..........
5 r.........
6 ..r.r.....
7 ..........
8 ..........
9 ..........
0 r.........
1 ..........
2 ..........
3 ....r.....
4 ....r...r.
5 rr......rr
6 r......rr.

Turn = 676.
  0123456789
0 rrr.......
1 ..........
2 ..........
3 ....r.....
4 ...r......
5 r.........
6 ..........
7 ..........
8 ...r.....r
9 ........r.
0 r.......r.
1 .........r
2 .....r.r..
3 ..........
4 ..........
5 .r........
6 .r..r..r..

Turn = 728.
  0123456789
0 ..........
1 .r........
2 ..........
3 .........r
4 ........r.
5 ..........
6 ..........
7 r.........
8 ..........
9 ..........
0 r.r.r.....
1 ......r...
2 ..........
3 r.........
4 .r.......r
5 ...rr....r
6 r.r.rr....

Turn = 780.
  0123456789
0 r.........
1 .r........
2 ..r.......
3 ..........
4 ..........
5 ..........
6 .r........
7 .r........
8 ..rr.....r
9 ......r...
0 ..........
1 r......r..
2 rr........
3 .r........
4 ..........
5 r.........
6 rr...r....

Turn = 832.
  0123456789
0 ...r...r.r
1 ..........
2 .......r..
3 ....rr....
4 .........r
5 ..........
6 ..........
7 ..........
8 ........r.
9 r..r.....r
0 ..........
1 ......r...
2 ..........
3 ..r.......
4 ..........
5 ......rr..
6 .....r..rr

Turn = 884.
  0123456789
0 ...r.rr..r
1 r........r
2 ..........
3 ..........
4 ..........
5 ..........
6 ..........
7 ........rr
8 .......r..
9 ..........
0 ..........
1 ..........
2 .r......r.
3 r........r
4 ..........
5 rrr.......
6 .rr.......

Turn = 936.
  0123456789
0 r..rrr....
1 .........r
2 ..........
3 r....r....
4 ..........
5 ..........
6 ......r...
7 ..........
8 ..........
9 ..........
0 r......r..
1 .......r.r
2 r.........
3 ..........
4 .........r
5 ....r.....
6 r..r..r...

Turn = 988.
  0123456789
0 ........r.
1 .....r...r
2 r....rr...
3 .....rr...
4 r.........
5 rr........
6 ..........
7 ........r.
8 ..........
9 ..........
0 ........r.
1 ..........
2 ..........
3 ........r.
4 ..........
5 .......r..
6 r.......rr

Turn = 1040.
  0123456789
0 .........r
1 ..........
2 ..r......r
3 r......rr.
4 ..........
5 ..........
6 .......r..
7 ..........
8 r.........
9 .rrr......
0 .r...r....
1 ......r...
2 ..........
3 r.........
4 r..r......
5 r.........
6 ..........

Turn = 1092.
  0123456789
0 ....r..rrr
1 .......r..
2 ........rr
3 ........r.
4 r.........
5 ..........
6 ..........
7 r........r
8 ..........
9 r.r.......
0 .........r
1 ..........
2 ..........
3 .........r
4 r.........
5 ..........
6 r........r

Turn = 1144.
  0123456789
0 r.r.....rr
1 r.........
2 ..........
3 ..r.......
4 ..........
5 ......r...
6 ......r..r
7 ........r.
8 ..........
9 ..........
0 ........rr
1 ..........
2 ......r..r
3 ........r.
4 .........r
5 .........r
6 ...r......

Turn = 1196.
  0123456789
0 ..........
1 r.........
2 ..........
3 ..........
4 .r........
5 .r........
6 r.........
7 r.........
8 r.........
9 r.......r.
0 ....r.....
1 r.....rr..
2 .......rr.
3 ......r...
4 .r........
5 .....r....
6 .........r

Turn = 1248.
  0123456789
0 ..rrr.....
1 rr......r.
2 r....r....
3 ..........
4 .........r
5 ..........
6 ..........
7 .........r
8 .......r.r
9 .........r
0 .........r
1 ..........
2 ..........
3 ..........
4 ..........
5 .r........
6 r.r....r..

Turn = 1300.
  0123456789
0 ...r......
1 ...r......
2 ....r.....
3 ..r.......
4 ..........
5 ......r...
6 ....r....r
7 .....r....
8 ..........
9 ..r.......
0 ..r.....rr
1 ..........
2 ......r..r
3 r....r....
4 ..........
5 .r........
6 ...r......

Turn = 1352.
  0123456789
0 r.......r.
1 ......r...
2 ..........
3 ..........
4 r........r
5 ..........
6 ..........
7 .r........
8 r........r
9 r.........
0 ..........
1 ..........
2 ..........
3 r........r
4 r..r......
5 r.......rr
6 r.......r.

Turn = 1404.
  0123456789
0 r....r.r..
1 .....r....
2 ..........
3 rr........
4 ..........
5 ..r.......
6 r..r.....r
7 ..........
8 ..........
9 .r........
0 .r........
1 ..........
2 ...r......
3 ....r....r
4 ..........
5 ......r...
6 ....rr....

Turn = 1456.
  0123456789
0 .........r
1 .....r....
2 ..........
3 ..r.......
4 ..........
5 ..........
6 ..........
7 ....r....r
8 .....r...r
9 ....r.r.r.
0 ........r.
1 ..........
2 ........r.
3 ..........
4 r.........
5 r.......rr
6 ...r....r.

Turn = 1508.
  0123456789
0 ..r..r....
1 ..........
2 ..........
3 ......rr.r
4 ......r..r
5 .r.rr.....
6 ...r......
7 ..........
8 ..........
9 ..........
0 ..r......r
1 ..........
2 r.......r.
3 r.........
4 ..........
5 ..........
6 r......r..

Turn = 1560.
  0123456789
0 ..rr......
1 .........r
2 ..r.......
3 .........r
4 ...r......
5 r..r......
6 .........r
7 .........r
8 .r.r......
9 rr........
0 r.........
1 ..........
2 ..........
3 ..........
4 ..r.......
5 ..........
6 ......r..r

Turn = 1612.
  0123456789
0 r.........
1 rr........
2 r.........
3 .r........
4 ..........
5 r.r.....r.
6 ..........
7 ........r.
8 ........r.
9 ..........
0 rr.......r
1 ..........
2 .........r
3 ..........
4 ..r.......
5 ...r......
6 ....r....r

Turn = 1664.
  0123456789
0 .rr.......
1 .r........
2 ..........
3 ..........
4 ...r......
5 ....r.....
6 ....r.....
7 ..........
8 ...r......
9 ..........
0 .......r..
1 ........r.
2 ........rr
3 .........r
4 r.........
5 .r.r......
6 .rr......r

Turn = 1716.
  0123456789
0 .rr.r.....
1 ..........
2 ......r...
3 ..........
4 ..........
5 .........r
6 .........r
7 .........r
8 ..........
9 ..r.......
0 .r.....r..
1 .r........
2 ..r...r...
3 ..r.......
4 .........r
5 ..........
6 ..rr....r.

Turn = 1768.
  0123456789
0 r.......r.
1 r.........
2 ..........
3 ..........
4 r.........
5 rr........
6 r.........
7 ..........
8 ..........
9 ......r...
0 ..........
1 ........r.
2 rrr......r
3 ..........
4 ......rr..
5 ......r...
6 ....r...r.

Turn = 1820.
  0123456789
0 rr........
1 ..........
2 .r........
3 ..........
4 ..........
5 ..........
6 ..........
7 .........r
8 ..........
9 .....rrr.r
0 ..........
1 ..........
2 r.........
3 r.......r.
4 .r........
5 .r.....r..
6 r.r.r...r.

Turn = 1872.
  0123456789
0 r........r
1 r....r....
2 r.........
3 ...r......
4 ..r.......
5 ..........
6 ...r......
7 r.r.......
8 ..r.......
9 r...r.....
0 ..........
1 r.........
2 r.........
3 r........r
4 r.........
5 ..........
6 ..........

Turn = 1924.
  0123456789
0 ..........
1 ..........
2 ..........
3 ..........
4 .r.......r
5 ..........
6 ..........
7 ..........
8 ......r...
9 ..........
0 .........r
1 ..rr..r...
2 r.........
3 rrr.......
4 rr........
5 ..r.......
6 r.r....r.r

*** Darwin 3x16 ***
Turn = 0.
  0123456789012345
0 ................
1 ..r.............
2 ................

*** Darwin 3x10 ***
Turn = 0.
  0123456789
0 ....r.....
1 ..........
2 ..........

Turn = 81.
  0123456789
0 .....r....
1 ..........
2 ..........

Turn = 162.
  0123456789
0 ..........
1 ..........
2 .........r

Turn = 243.
  0123456789
0 ..........
1 ..........
2 r.........

Turn = 324.
  0123456789
0 ..r.......
1 ..........
2 ..........

Turn = 405.
  0123456789
0 ..........
1 ..........
2 .........r

Turn = 486.
  0123456789
0 r.........
1 ..........
2 ..........

Turn = 567.
  0123456789
0 ..........
1 ..........
2 .r........

Turn = 648.
  0123456789
0 ..........
1 ..........
2 ......r...

Turn = 729.
  0123456789
0 ..........
1 ..........
2 .r........

Turn = 810.
  0123456789
0 ..........
1 ..........
2 .........r

Turn = 891.
  0123456789
0 .......r..
1 ..........
2 ..........

Turn = 972.
  0123456789
0 ..........
1 ..........
2 .........r

Turn = 1053.
  0123456789
0 ..........
1 ..........
2 .......r..

Turn = 1134.
  0123456789
0 ..........
1 ..........
2 .........r

Turn = 1215.
  0123456789
0 ..........
1 ..........
2 r.........

Turn = 1296.
  0123456789
0 .........r
1 ..........
2 ..........

Turn = 1377.
  0123456789
0 .........r
1 ..........
2 ..........

Turn = 1458.
  0123456789
0 ..........
1 ..........
2 ..r.......

Turn = 1539.
  0123456789
0 .r........
1 ..........
2 ..........

*** Darwin 4x2 ***
Turn = 0.
  01
0 rr
1 tf
2 t.
3 r.

Turn = 73.
  01
0 tr
1 rr
2 t.
3 t.

Turn = 146.
  01
0 rt
1 tt
2 t.
3 t.

Turn = 219.
  01
0 tr
1 rr
2 t.
3 t.

Turn = 292.
  01
0 rt
1 tt
2 t.
3 t.

Turn = 365.
  01
0 tr
1 rr
2 t.
3 t.

Turn = 438.
  01
0 rt
1 tt
2 t.
3 t.

Turn = 511.
  01
0 tr
1 rr
2 t.
3 t.

Turn = 584.
  01
0 rt
1 tt
2 t.
3 t.

Turn = 657.
  01
0 tr
1 rr
2 t.
3 t.

Turn = 730.
  01
0 rt
1 tt
2 t.
3 t.

Turn = 803.
  01
0 tr
1 rr
2 t.
3 t.

Turn = 876.
  01
0 rt
1 tt
2 t.
3 t.

Turn = 949.
  01
0 tr
1 rr
2 t.
3 t.

Turn = 1022.
  01
0 rt
1 tt
2 t.
3 t.

Turn = 1095.
  01
0 tr
1 rr
2 t.
3 t.

Turn = 1168.
  01
0 rt
1 tt
2 t.
3 t.

Turn = 1241.
  01
0 tr
1 rr
2 t.
3 t.

Turn = 1314.
  01
0 rt
1 tt
2 t.
3 t.

Turn = 1387.
  01
0 tr
1 rr
2 t.
3 t.

*** Darwin 10x11 ***
Turn = 0.
  01234567890
0 ...........
1 ..........f
2 .f.........
3 ...........
4 ...........
5 ......ft...
6 .....t.....
7 t........t.
8 ..r...r....
9 ....rh.....

Turn = 65.
  01234567890
0 ...........
1 ...........
2 ...........
3 ...........
4 ...........
5 ......tt...
6 tt........t
7 tt.......tt
8 t..........
9 t..........

Turn = 130.
  01234567890
0 ...........
1 ...........
2 ...........
3 ...........
4 ...........
5 ......tt...
6 tt........t
7 tt.......tt
8 t..........
9 t..........

Turn = 195.
  01234567890
0 ...........
1 ...........
2 ...........
3 ...........
4 ...........
5 ......tt...
6 tt........t
7 tt.......tt
8 t..........
9 t..........

Turn = 260.
  01234567890
0 ...........
1 ...........
2 ...........
3 ...........
4 ...........
5 ......tt...
6 tt........t
7 tt.......tt
8 t..........
9 t..........

Turn = 325.
  01234567890
0 ...........
1 ...........
2 ...........
3 ...........
4 ...........
5 ......tt...
6 tt........t
7 tt.......tt
8 t..........
9 t..........

Turn = 390.
  01234567890
0 ...........
1 ...........
2 ...........
3 ...........
4 ...........
5 ......tt...
6 tt........t
7 tt.......tt
8 t..........
9 t..........

Turn = 455.
  01234567890
0 ...........
1 ...........
2 ...........
3 ...........
4 ...........
5 ......tt...
6 tt........t
7 tt.......tt
8 t..........
9 t..........

Turn = 520.
  01234567890
0 ...........
1 ...........
2 ...........
3 ...........
4 ...........
5 ......tt...
6 tt........t
7 tt.......tt
8 t..........
9 t..........

Turn = 585.
  01234567890
0 ...........
1 ...........
2 ...........
3 ...........
4 ...........
5 ......tt...
6 tt........t
7 tt.......tt
8 t..........
9 t..........

Turn = 650.
  01234567890
0 ...........
1 ...........
2 ...........
3 ...........
4 ...........
5 ......tt...
6 tt........t
7 tt.......tt
8 t..........
9 t..........

Turn = 715.
  01234567890
0 ...........
1 ...........
2 ...........
3 ...........
4 ...........
5 ......tt...
6 tt........t
7 tt.......tt
8 t..........
9 t..........

Turn = 780.
  01234567890
0 ...........
1 ...........
2 ...........
3 ...........
4 ...........
5 ......tt...
6 tt........t
7 tt.......tt
8 t..........
9 t..........

Turn = 845.
  01234567890
0 ...........
1 ...........
2 ...........
3 ...........
4 ...........
5 ......tt...
6 tt........t
7 tt.......tt
8 t..........
9 t..........

Turn = 910.
  01234567890
0 ...........
1 ...........
2 ...........
3 ...........
4 ...........
5 ......tt...
6 tt........t
7 tt.......tt
8 t..........
9 t..........

Turn = 975.
  01234567890
0 ...........
1 ...........
2 ...........
3 ...........
4 ...........
5 ......tt...
6 tt........t
7 tt.......tt
8 t..........
9 t..........

Turn = 1040.
  01234567890
0 ...........
1 ...........
2 ...........
3 ...........
4 ...........
5 ......tt...
6 tt........t
7 tt.......tt
8 t..........
9 t..........

Turn = 1105.
  01234567890
0 ...........
1 ...........
2 ...........
3 ...........
4 ...........
5 ......tt...
6 tt........t
7 tt.......tt
8 t..........
9 t..........

Turn = 1170.
  01234567890
0 ...........
1 ...........
2 ...........
3 ...........
4 ...........
5 ......tt...
6 tt........t
7 tt.......tt
8 t..........
9 t..........

Turn = 1235.
  01234567890
0 ...........
1 ...........
2 ...........
3 ...........
4 ...........
5 ......tt...
6 tt........t
7 tt.......tt
8 t..........
9 t..........

Turn = 1300.
  01234567890
0 ...........
1 ...........
2 ...........
3 ...........
4 ...........
5 ......tt...
6 tt........t
7 tt.......tt
8 t..........
9 t..........

Turn = 1365.
  01234567890
0 ...........
1 ...........
2 ...........
3 ...........
4 ...........
5 ......tt...
6 tt........t
7 tt.......tt
8 t..........
9 t..........

Turn = 1430.
  01234567890
0 ...........
1 ...........
2 ...........
3 ...........
4 ...........
5 ......tt...
6 tt........t
7 tt.......tt
8 t..........
9 t..........

*** Darwin 9x20 ***
Turn = 0.
  01234567890123456789
0 ....................
1 ....................
2 ................fr..
3 ..........t..h......
4 ........f...........
5 ........r...........
6 .....r.........f....
7 ....................
8 .f..................

Turn = 95.
  01234567890123456789
0 .......r.r..........
1 .......r............
2 ....................
3 ..........tt........
4 ........f..t........
5 ....................
6 ....................
7 ....................
8 .r............r.....

Turn = 190.
  01234567890123456789
0 ...................r
1 ....................
2 ...........t........
3 ..........tt........
4 ........f..t........
5 ....................
6 ....................
7 ....................
8 ......r.....rr......

Turn = 285.
  01234567890123456789
0 .............r......
1 ....................
2 ...........t........
3 r.........tt........
4 ........f..t........
5 ...........tt.......
6 ....................
7 ....................
8 ....................

Turn = 380.
  01234567890123456789
0 .r.................r
1 ....................
2 ...........t........
3 ..........tt........
4 ........f..t........
5 ...........tt.......
6 ....................
7 ....................
8 ....................

Turn = 475.
  01234567890123456789
0 ....................
1 ....................
2 ...........t........
3 ..........tt........
4 ........f..t........
5 ...........tt.......
6 ....................
7 ..................r.
8 ...................r

Turn = 570.
  01234567890123456789
0 ....................
1 ....................
2 ...........tt.......
3 ..........tt........
4 ........f..t........
5 ...........tt.......
6 ....................
7 ....................
8 ...........r........

Turn = 665.
  01234567890123456789
0 ..r.................
1 ....................
2 ...........tt.......
3 ..........tt........
4 ........f..t........
5 ...........tt.......
6 ....................
7 ....................
8 ....................

Turn = 760.
  01234567890123456789
0 ....................
1 ....................
2 ...........tt.......
3 ..........tt........
4 ........f..t........
5 ...........tt.......
6 ....................
7 ....................
8 .................r..

Turn = 855.
  01234567890123456789
0 ....................
1 ....................
2 ...........tt.......
3 ..........tt........
4 ........f..t........
5 r..........tt.......
6 ....................
7 ....................
8 ....................

*** Darwin 7x4 ***
Turn = 0.
  0123
0 .fh.
1 ....
2 ..ft
3 t...
4 f...
5 ....
6 ....

Turn = 181.
  0123
0 .fh.
1 ....
2 ..tt
3 t...
4 t...
5 ....
6 ....

Turn = 362.
  0123
0 .fh.
1 ....
2 ..tt
3 t...
4 t...
5 ....
6 ....

Turn = 543.
  0123
0 .fh.
1 ....
2 ..tt
3 t...
4 t...
5 ....
6 ....

Turn = 724.
  0123
0 .fh.
1 ....
2 ..tt
3 t...
4 t...
5 ....
6 ....

Turn = 905.
  0123
0 .fh.
1 ....
2 ..tt
3 t...
4 t...
5 ....
6 ....

*** Darwin 19x19 ***
Turn = 0.
  0123456789012345678
0 ...................
1 ...................
2 ...................
3 ...................
4 ...................
5 ...................
6 ..........r........
7 ...........t.......
8 ...................
9 ...................
0 ...................
1 ...................
2 ...................
3 ...................
4 ...............r...
5 ...................
6 ...................
7 .........rh........
8 ...................

Turn = 168.
  0123456789012345678
0 .........r.........
1 ...................
2 ...................
3 ...................
4 ...................
5 ...................
6 ........r..t.......
7 ........r..t.......
8 ...................
9 ...................
0 ...................
1 ...................
2 ...................
3 ...................
4 ...................
5 ...................
6 ...................
7 ...................
8 ...................

Turn = 336.
  0123456789012345678
0 ........r..r.......
1 ...................
2 ...................
3 ...................
4 ...................
5 ...................
6 ...................
7 ...................
8 ...................
9 ...................
0 ...................
1 ...................
2 ...................
3 r..................
4 r..................
5 ...................
6 ...................
7 ...................
8 r..................

Turn = 504.
  0123456789012345678
0 ...................
1 ...................
2 ...................
3 ...................
4 ...................
5 ...................
6 ...................
7 ..................r
8 ...................
9 ...................
0 ...................
1 ...................
2 .............r.....
3 ...................
4 ...................
5 ...................
6 ...................
7 ...................
8 .....r....r....r...

Turn = 672.
  0123456789012345678
0 ...................
1 ...................
2 ...................
3 r..................
4 ...................
5 ...................
6 ...................
7 ...................
8 ...................
9 ...................
0 ...................
1 r..................
2 ...................
3 ...................
4 ...................
5 .................r.
6 ................r..
7 ...................
8 ..................r

*** Darwin 6x19 ***
Turn = 0.
  0123456789012345678
0 ...........hf.....t
1 ....h...........f..
2 ....h..f..f........
3 ................t.f
4 ..t.......hr......t
5 ....t.............t

Turn = 170.
  0123456789012345678
0 h...........f.....t
1 ...............hf..
2 ......hf..f........
3 ................t.t
4 ..t..............tt
5 ....tt............t

Turn = 340.
  0123456789012345678
0 h...........f.....t
1 ...............hf..
2 ......hf..f........
3 ................t.t
4 ..t..............tt
5 ....tt............t

Turn = 510.
  0123456789012345678
0 h...........f.....t
1 ...............hf..
2 ......hf..f........
3 ................t.t
4 ..t..............tt
5 ....tt............t

Turn = 680.
  0123456789012345678
0 h...........f.....t
1 ...............hf..
2 ......hf..f........
3 ................t.t
4 ..t..............tt
5 ....tt............t

Turn = 850.
  0123456789012345678
0 h...........f.....t
1 ...............hf..
2 ......hf..f........
3 ................t.t
4 ..t..............tt
5 ....tt............t

*** Darwin 12x5 ***
Turn = 0.
  01234
0 t....
1 ...t.
2 .....
3 .....
4 ..f..
5 .....
6 ...t.
7 .....
8 .....
9 .r...
0 .t...
1 ..r..

Turn = 86.
  01234
0 .....
1 .....
2 .....
3 .....
4 .....
5 .....
6 .r...
7 .r...
8 r....
9 r....
0 .r.r.
1 r....

Turn = 172.
  01234
0 r....
1 .....
2 r....
3 .....
4 .....
5 .....
6 .....
7 r....
8 ....r
9 ....r
0 ....r
1 r....

*** Darwin 17x1 ***
Turn = 0.
  0
0 .
1 .
2 .
3 .
4 r
5 .
6 .
7 .
8 .
9 f
0 .
1 t
2 .
3 .
4 f
5 .
6 r

Turn = 7.
  0
0 .
1 .
2 .
3 .
4 .
5 .
6 .
7 .
8 r
9 .
0 r
1 t
2 r
3 r
4 .
5 .
6 .

Turn = 14.
  0
0 .
1 .
2 .
3 .
4 .
5 .
6 .
7 .
8 .
9 r
0 r
1 r
2 .
3 .
4 .
5 r
6 r

Turn = 21.
  0
0 .
1 .
2 .
3 .
4 .
5 r
6 .
7 .
8 .
9 .
0 .
1 .
2 r
3 r
4 r
5 r
6 .

Turn = 28.
  0
0 r
1 .
2 .
3 .
4 .
5 .
6 r
7 .
8 .
9 .
0 .
1 .
2 .
3 .
4 r
5 r
6 r

Turn = 35.
  0
0 .
1 r
2 .
3 .
4 .
5 r
6 .
7 .
8 .
9 .
0 .
1 .
2 r
3 .
4 .
5 r
6 r

Turn = 42.
  0
0 .
1 .
2 r
3 .
4 .
5 .
6 .
7 .
8 r
9 .
0 .
1 r
2 r
3 .
4 r
5 .
6 .

Turn = 49.
  0
0 .
1 .
2 .
3 .
4 .
5 .
6 .
7 .
8 r
9 r
0 r
1 .
2 r
3 .
4 .
5 r
6 .

Turn = 56.
  0
0 .
1 .
2 .
3 .
4 r
5 .
6 .
7 .
8 .
9 .
0 .
1 .
2 r
3 .
4 r
5 r
6 r

Turn = 63.
  0
0 r
1 .
2 .
3 .
4 .
5 .
6 .
7 .
8 .
9 .
0 .
1 r
2 r
3 .
4 .
5 r
6 r

Turn = 70.
  0
0 .
1 .
2 r
3 .
4 r
5 r
6 .
7 .
8 .
9 r
0 .
1 .
2 .
3 .
4 .
5 .
6 r

Turn = 77.
  0
0 r
1 r
2 .
3 .
4 .
5 .
6 r
7 .
8 r
9 r
0 .
1 .
2 .
3 .
4 .
5 .
6 .

Turn = 84.
  0
0 r
1 .
2 r
3 .
4 .
5 .
6 .
7 r
8 .
9 r
0 .
1 .
2 .
3 .
4 r
5 .
6 .

Turn = 91.
  0
0 .
1 r
2 .
3 .
4 .
5 r
6 .
7 .
8 r
9 .
0 .
1 .
2 .
3 .
4 .
5 r
6 r

Turn = 98.
  0
0 .
1 .
2 .
3 .
4 r
5 .
6 .
7 .
8 .
9 .
0 .
1 r
2 r
3 r
4 r
5 .
6 .

Turn = 105.
  0
0 .
1 .
2 .
3 .
4 .
5 .
6 .
7 r
8 .
9 r
0 r
1 .
2 r
3 r
4 .
5 .
6 .

Turn = 112.
  0
0 r
1 .
2 r
3 .
4 .
5 .
6 .
7 r
8 .
9 .
0 .
1 .
2 .
3 .
4 .
5 r
6 r

Turn = 119.
  0
0 .
1 r
2 r
3 r
4 .
5 .
6 .
7 .
8 .
9 .
0 r
1 .
2 .
3 .
4 .
5 .
6 r

Turn = 126.
  0
0 r
1 .
2 .
3 .
4 .
5 r
6 r
7 .
8 .
9 r
0 r
1 .
2 .
3 .
4 .
5 .
6 .

Turn = 133.
  0
0 .
1 r
2 .
3 r
4 .
5 .
6 r
7 r
8 .
9 .
0 .
1 .
2 .
3 r
4 .
5 .
6 .

Turn = 140.
  0
0 r
1 r
2 r
3 r
4 .
5 .
6 .
7 .
8 .
9 .
0 .
1 .
2 .
3 .
4 r
5 .
6 .

Turn = 147.
  0
0 r
1 r
2 .
3 .
4 r
5 .
6 .
7 r
8 r
9 .
0 .
1 .
2 .
3 .
4 .
5 .
6 .

Turn = 154.
  0
0 .
1 .
2 r
3 r
4 r
5 .
6 .
7 .
8 .
9 .
0 .
1 r
2 .
3 .
4 r
5 .
6 .

Turn = 161.
  0
0 r
1 r
2 r
3 .
4 .
5 .
6 .
7 .
8 .
9 .
0 .
1 .
2 .
3 .
4 r
5 .
6 r

Turn = 168.
  0
0 r
1 r
2 .
3 .
4 .
5 .
6 .
7 .
8 r
9 r
0 .
1 .
2 r
3 .
4 .
5 .
6 .

Turn = 175.
  0
0 r
1 r
2 r
3 .
4 .
5 .
6 r
7 .
8 .
9 .
0 .
1 .
2 .
3 .
4 .
5 r
6 .

Turn = 182.
  0
0 r
1 .
2 r
3 r
4 r
5 .
6 .
7 .
8 .
9 .
0 .
1 .
2 .
3 .
4 .
5 .
6 r

Turn = 189.
  0
0 r
1 .
2 .
3 .
4 .
5 r
6 .
7 .
8 r
9 .
0 r
1 .
2 .
3 r
4 .
5 .
6 .

Turn = 196.
  0
0 .
1 .
2 .
3 .
4 .
5 .
6 r
7 .
8 r
9 .
0 r
1 r
2 .
3 .
4 r
5 .
6 .

Turn = 203.
  0
0 .
1 .
2 .
3 r
4 .
5 .
6 .
7 .
8 .
9 r
0 .
1 .
2 r
3 .
4 r
5 r
6 .

Turn = 210.
  0
0 r
1 .
2 .
3 .
4 .
5 .
6 .
7 .
8 .
9 .
0 .
1 .
2 r
3 r
4 r
5 r
6 .

Turn = 217.
  0
0 .
1 .
2 .
3 .
4 .
5 r
6 .
7 r
8 r
9 .
0 r
1 r
2 .
3 .
4 .
5 .
6 .

Turn = 224.
  0
0 .
1 .
2 r
3 .
4 r
5 .
6 .
7 .
8 r
9 r
0 .
1 .
2 r
3 .
4 .
5 .
6 .

Turn = 231.
  0
0 r
1 r
2 .
3 .
4 .
5 .
6 r
7 .
8 r
9 .
0 .
1 .
2 .
3 .
4 .
5 r
6 .

Turn = 238.
  0
0 .
1 r
2 r
3 r
4 r
5 .
6 .
7 .
8 r
9 .
0 .
1 .
2 .
3 .
4 .
5 .
6 .

Turn = 245.
  0
0 r
1 r
2 r
3 .
4 r
5 .
6 .
7 .
8 .
9 r
0 .
1 .
2 .
3 .
4 .
5 .
6 .

Turn = 252.
  0
0 r
1 r
2 .
3 r
4 .
5 r
6 .
7 .
8 .
9 .
0 .
1 .
2 .
3 .
4 .
5 .
6 r

Turn = 259.
  0
0 .
1 r
2 .
3 r
4 .
5 .
6 .
7 .
8 .
9 .
0 r
1 .
2 r
3 .
4 .
5 .
6 r

Turn = 266.
  0
0 .
1 .
2 .
3 .
4 .
5 .
6 .
7 .
8 r
9 .
0 r
1 .
2 .
3 r
4 .
5 r
6 r

Turn = 273.
  0
0 .
1 .
2 .
3 .
4 .
5 .
6 .
7 r
8 .
9 r
0 r
1 .
2 .
3 .
4 .
5 r
6 r

Turn = 280.
  0
0 r
1 .
2 r
3 r
4 .
5 .
6 .
7 .
8 .
9 .
0 .
1 r
2 .
3 .
4 .
5 .
6 r

Turn = 287.
  0
0 r
1 r
2 .
3 .
4 r
5 r
6 .
7 .
8 .
9 r
0 .
1 .
2 .
3 .
4 .
5 .
6 .

Turn = 294.
  0
0 r
1 .
2 r
3 .
4 r
5 r
6 r
7 .
8 .
9 .
0 .
1 .
2 .
3 .
4 .
5 .
6 .

Turn = 301.
  0
0 r
1 r
2 r
3 .
4 r
5 .
6 .
7 .
8 .
9 .
0 .
1 r
2 .
3 .
4 .
5 .
6 .

Turn = 308.
  0
0 r
1 .
2 r
3 .
4 .
5 .
6 .
7 .
8 .
9 r
0 .
1 r
2 .
3 .
4 .
5 .
6 r

Turn = 315.
  0
0 .
1 .
2 .
3 r
4 .
5 .
6 .
7 .
8 .
9 r
0 .
1 .
2 r
3 r
4 r
5 .
6 .

Turn = 322.
  0
0 .
1 .
2 .
3 .
4 .
5 .
6 .
7 .
8 .
9 r
0 r
1 r
2 .
3 .
4 .
5 r
6 r

Turn = 329.
  0
0 .
1 .
2 .
3 r
4 .
5 r
6 .
7 .
8 .
9 .
0 .
1 .
2 r
3 .
4 r
5 .
6 r

Turn = 336.
  0
0 r
1 r
2 .
3 .
4 .
5 r
6 .
7 r
8 .
9 .
0 .
1 .
2 r
3 .
4 .
5 .
6 .

Turn = 343.
  0
0 r
1 r
2 .
3 r
4 r
5 r
6 .
7 .
8 .
9 .
0 .
1 .
2 .
3 .
4 .
5 .
6 .

Turn = 350.
  0
0 r
1 r
2 r
3 r
4 .
5 .
6 .
7 .
8 .
9 .
0 r
1 .
2 .
3 .
4 .
5 .
6 .

Turn = 357.
  0
0 r
1 r
2 r
3 .
4 .
5 .
6 r
7 .
8 .
9 .
0 .
1 .
2 .
3 .
4 .
5 .
6 r

Turn = 364.
  0
0 r
1 r
2 .
3 r
4 .
5 .
6 .
7 .
8 .
9 .
0 .
1 r
2 r
3 .
4 .
5 .
6 .

Turn = 371.
  0
0 .
1 .
2 .
3 .
4 .
5 r
6 r
7 r
8 r
9 .
0 .
1 r
2 .
3 .
4 .
5 .
6 .

Turn = 378.
  0
0 r
1 .
2 r
3 .
4 .
5 .
6 .
7 .
8 .
9 r
0 .
1 r
2 .
3 .
4 .
5 .
6 r

Turn = 385.
  0
0 .
1 .
2 .
3 r
4 .
5 r
6 .
7 .
8 .
9 .
0 .
1 .
2 .
3 r
4 r
5 r
6 .

Turn = 392.
  0
0 .
1 .
2 .
3 .
4 .
5 .
6 .
7 .
8 r
9 r
0 r
1 r
2 r
3 .
4 .
5 .
6 .

Turn = 399.
  0
0 .
1 r
2 .
3 .
4 .
5 .
6 .
7 .
8 .
9 .
0 .
1 r
2 .
3 .
4 r
5 r
6 r

Turn = 406.
  0
0 .
1 .
2 .
3 .
4 r
5 .
6 .
7 .
8 .
9 .
0 r
1 r
2 .
3 r
4 .
5 .
6 r

Turn = 413.
  0
0 .
1 .
2 .
3 .
4 .
5 r
6 .
7 r
8 r
9 .
0 r
1 r
2 .
3 .
4 .
5 .
6 .

Turn = 420.
  0
0 r
1 r
2 r
3 .
4 .
5 .
6 .
7 .
8 .
9 r
0 .
1 .
2 r
3 .
4 .
5 .
6 .

Turn = 427.
  0
0 .
1 .
2 .
3 r
4 r
5 .
6 r
7 .
8 r
9 .
0 .
1 .
2 .
3 .
4 .
5 .
6 r

Turn = 434.
  0
0 r
1 r
2 .
3 .
4 .
5 .
6 .
7 .
8 .
9 .
0 .
1 .
2 r
3 r
4 r
5 .
6 .

Turn = 441.
  0
0 r
1 .
2 .
3 .
4 .
5 r
6 .
7 .
8 r
9 .
0 .
1 .
2 .
3 .
4 .
5 r
6 r

Turn = 448.
  0
0 .
1 .
2 .
3 .
4 r
5 r
6 r
7 .
8 .
9 .
0 .
1 .
2 .
3 .
4 .
5 r
6 r

Turn = 455.
  0
0 .
1 r
2 .
3 .
4 .
5 r
6 .
7 .
8 r
9 r
0 .
1 .
2 .
3 r
4 .
5 .
6 .

Turn = 462.
  0
0 r
1 .
2 .
3 r
4 r
5 r
6 r
7 .
8 .
9 .
0 .
1 .
2 .
3 .
4 .
5 .
6 .

Turn = 469.
  0
0 .
1 r
2 .
3 r
4 r
5 .
6 r
7 .
8 .
9 .
0 .
1 r
2 .
3 .
4 .
5 .
6 .

Turn = 476.
  0
0 .
1 .
2 .
3 .
4 r
5 .
6 .
7 .
8 r
9 .
0 .
1 r
2 .
3 r
4 .
5 .
6 r

Turn = 483.
  0
0 .
1 .
2 .
3 .
4 .
5 .
6 .
7 .
8 .
9 .
0 .
1 r
2 r
3 r
4 r
5 r
6 .

Turn = 490.
  0
0 .
1 .
2 .
3 .
4 .
5 .
6 r
7 .
8 r
9 .
0 .
1 r
2 .
3 r
4 r
5 .
6 .

Turn = 497.
  0
0 r
1 r
2 .
3 .
4 r
5 .
6 r
7 r
8 .
9 .
0 .
1 .
2 .
3 .
4 .
5 .
6 .

Turn = 504.
  0
0 r
1 r
2 r
3 r
4 r
5 .
6 .
7 .
8 .
9 .
0 .
1 .
2 .
3 .
4 .
5 .
6 .

Turn = 511.
  0
0 r
1 r
2 r
3 .
4 .
5 .
6 r
7 .
8 .
9 .
0 .
1 r
2 .
3 .
4 .
5 .
6 .

Turn = 518.
  0
0 r
1 .
2 r
3 .
4 .
5 .
6 .
7 .
8 .
9 r
0 .
1 .
2 .
3 r
4 .
5 .
6 r

Turn = 525.
  0
0 .
1 .
2 .
3 .
4 .
5 r
6 .
7 .
8 .
9 r
0 .
1 .
2 .
3 r
4 r
5 r
6 .

Turn = 532.
  0
0 .
1 .
2 .
3 .
4 .
5 .
6 .
7 .
8 .
9 .
0 r
1 r
2 r
3 r
4 r
5 .
6 .

Turn = 539.
  0
0 .
1 .
2 .
3 .
4 .
5 r
6 .
7 .
8 .
9 r
0 .
1 .
2 r
3 r
4 .
5 r
6 .

Turn = 546.
  0
0 r
1 .
2 r
3 .
4 .
5 r
6 .
7 .
8 .
9 .
0 .
1 .
2 .
3 .
4 .
5 r
6 r

Turn = 553.
  0
0 r
1 r
2 r
3 .
4 .
5 .
6 .
7 .
8 .
9 .
0 .
1 .
2 .
3 .
4 r
5 r
6 .

Turn = 560.
  0
0 .
1 .
2 r
3 .
4 .
5 .
6 r
7 .
8 r
9 r
0 r
1 .
2 .
3 .
4 .
5 .
6 .

Turn = 567.
  0
0 .
1 .
2 .
3 .
4 .
5 .
6 r
7 r
8 r
9 r
0 .
1 .
2 .
3 .
4 .
5 r
6 .

Turn = 574.
  0
0 .
1 .
2 .
3 .
4 .
5 .
6 r
7 r
8 .
9 r
0 .
1 .
2 r
3 r
4 .
5 .
6 .

Turn = 581.
  0
0 .
1 .
2 .
3 .
4 .
5 .
6 .
7 .
8 .
9 r
0 r
1 r
2 .
3 .
4 .
5 r
6 r

Turn = 588.
  0
0 .
1 .
2 .
3 .
4 .
5 .
6 .
7 .
8 .
9 r
0 r
1 r
2 .
3 r
4 .
5 .
6 r

Turn = 595.
  0
0 .
1 .
2 .
3 .
4 .
5 r
6 .
7 .
8 .
9 .
0 .
1 .
2 .
3 r
4 r
5 r
6 r

Turn = 602.
  0
0 r
1 .
2 .
3 .
4 .
5 .
6 .
7 .
8 .
9 .
0 .
1 .
2 r
3 .
4 r
5 r
6 r

Turn = 609.
  0
0 .
1 .
2 .
3 .
4 .
5 .
6 r
7 r
8 r
9 .
0 r
1 .
2 .
3 .
4 .
5 r
6 .

Turn = 616.
  0
0 .
1 .
2 .
3 .
4 r
5 .
6 .
7 r
8 r
9 r
0 r
1 .
2 .
3 .
4 .
5 .
6 .

Turn = 623.
  0
0 .
1 r
2 .
3 .
4 .
5 .
6 .
7 r
8 .
9 .
0 r
1 .
2 r
3 .
4 .
5 .
6 r

Turn = 630.
  0
0 .
1 .
2 r
3 .
4 r
5 .
6 .
7 .
8 .
9 .
0 .
1 r
2 .
3 r
4 .
5 .
6 r

Turn = 637.
  0
0 r
1 .
2 .
3 r
4 r
5 .
6 r
7 .
8 .
9 .
0 .
1 r
2 .
3 .
4 .
5 .
6 .

Turn = 644.
  0
0 .
1 .
2 r
3 r
4 .
5 r
6 r
7 .
8 r
9 .
0 .
1 .
2 .
3 .
4 .
5 .
6 .

Turn = 651.
  0
0 r
1 r
2 r
3 .
4 .
5 .
6 r
7 .
8 .
9 .
0 .
1 .
2 .
3 .
4 .
5 r
6 .

Turn = 658.
  0
0 r
1 .
2 r
3 .
4 .
5 r
6 .
7 .
8 .
9 .
0 .
1 .
2 .
3 r
4 r
5 .
6 .

Turn = 665.
  0
0 .
1 .
2 .
3 r
4 .
5 .
6 .
7 .
8 .
9 r
0 .
1 r
2 r
3 .
4 .
5 r
6 .

*** Darwin 7x8 ***
Turn = 0.
  01234567
0 .....t..
1 ........
2 ........
3 ......h.
4 .f......
5 ........
6 ........

Turn = 159.
  01234567
0 .....t..
1 ........
2 ........
3 .......h
4 .f......
5 ........
6 ........

Turn = 318.
  01234567
0 .....t..
1 ........
2 ........
3 .......h
4 .f......
5 ........
6 ........

Turn = 477.
  01234567
0 .....t..
1 ........
2 ........
3 .......h
4 .f......
5 ........
6 ........

Turn = 636.
  01234567
0 .....t..
1 ........
2 ........
3 .......h
4 .f......
5 ........
6 ........

Turn = 795.
  01234567
0 .....t..
1 ........
2 ........
3 .......h
4 .f......
5 ........
6 ........

*** Darwin 5x9 ***
Turn = 0.
  012345678
0 .........
1 ....f...f
2 .........
3 .........
4 ...t.fr..

Turn = 61.
  012345678
0 .........
1 r........
2 .........
3 .....r...
4 ..r...rr.

Turn = 122.
  012345678
0 r...rr...
1 ......r..
2 .......r.
3 .........
4 .........

Turn = 183.
  012345678
0 ...r...rr
1 .........
2 .........
3 .........
4 .....r..r

Turn = 244.
  012345678
0 r......r.
1 .........
2 .........
3 ......r.r
4 ......r..

Turn = 305.
  012345678
0 r........
1 r........
2 .......r.
3 ...r....r
4 .........

Turn = 366.
  012345678
0 rr.......
1 .........
2 ........r
3 r........
4 .r.......

Turn = 427.
  012345678
0 .........
1 r........
2 rr.......
3 .........
4 r.......r

Turn = 488.
  012345678
0 rr.......
1 r........
2 .........
3 .r.......
4 ........r

Turn = 549.
  012345678
0 rr.......
1 rr.......
2 ........r
3 .........
4 .........

Turn = 610.
  012345678
0 .r..r...r
1 .....r.r.
2 .........
3 .........
4 .........

*** Darwin 2x19 ***
Turn = 0.
  0123456789012345678
0 .....h.......f.....
1 ..t.....t..hh..rh..

Turn = 99.
  0123456789012345678
0 ..........rr.r...rr
1 ......r....r....r..

Turn = 198.
  0123456789012345678
0 .........rr.....r.r
1 .........r.r.r...r.

Turn = 297.
  0123456789012345678
0 ........r..........
1 .r...rrr.....r..r.r

Turn = 396.
  0123456789012345678
0 r...rr....r..r.....
1 .......r.r....r....

Turn = 495.
  0123456789012345678
0 ....rr....r....r...
1 .....r...r......rr.

Turn = 594.
  0123456789012345678
0 .....r.r..r......rr
1 .......r...r......r

Turn = 693.
  0123456789012345678
0 ...rrr.............
1 .r.r.rr...........r

Turn = 792.
  0123456789012345678
0 rrr................
1 rrrr..r............

Turn = 891.
  0123456789012345678
0 r..r.......r.......
1 ....r..rr...r....r.

Turn = 990.
  0123456789012345678
0 ...r.r.........rr.r
1 r.....r........r...

*** Darwin 1x1 ***
Turn = 0.
  0
0 t

Turn = 77.
  0
0 t

Turn = 154.
  0
0 t

Turn = 231.
  0
0 t

*** Darwin 6x12 ***
Turn = 0.
  012345678901
0 h...rrhr....
1 .t..r......t
2 .......tr...
3 ...f..r.r...
4 ..........t.
5 ....h.t.....

Turn = 137.
  012345678901
0 ....r..r....
1 ....r.r.r...
2 ............
3 .......r..r.
4 r.r.....rr.r
5 r..rr......r

Turn = 274.
  012345678901
0 r.r......r..
1 r.r.........
2 r...rr......
3 .r...r......
4 ..rr........
5 ..r....rr..r

Turn = 411.
  012345678901
0 rr.r.r...r..
1 r.r..r......
2 ............
3 r.........r.
4 .r...r......
5 ....r...rr.r

Turn = 548.
  012345678901
0 r..r.....r..
1 .r.....r...r
2 .r....rr...r
3 ..........rr
4 .....r.....r
5 ..rr........

Turn = 685.
  012345678901
0 ....r.r.....
1 r.....r.r...
2 rr...r..r...
3 ..rr.......r
4 .......rr.r.
5 .........r..

Turn = 822.
  012345678901
0 r...........
1 r...........
2 .r.....rr...
3 .......r...r
4 r..r....rr..
5 r....r..rrr.

Turn = 959.
  012345678901
0 rr.rr.rr....
1 rr........rr
2 .r.......r..
3 ...r........
4 ....r...r...
5 ...r........

Turn = 1096.
  012345678901
0 .r...r.....r
1 ............
2 .....r..r..r
3 r......r...r
4 .r...r.....r
5 ..r.....r.rr

*** Darwin 12x16 ***
Turn = 0.
  0123456789012345
0 ...........t.r..
1 ........t...h...
2 ................
3 ..............t.
4 .r........r.....
5 .....r..........
6 ............t...
7 ........f.......
8 ...........t....
9 ..r............h
0 ................
1 .f..............

Turn = 162.
  0123456789012345
0 ........tt......
1 ........t.......
2 ...............t
3 .............ttt
4 .............ttt
5 ...............t
6 ............t...
7 ........f.......
8 ...........t....
9 ................
0 ................
1 ................

Turn = 324.
  0123456789012345
0 ........tt......
1 ........t.......
2 ...............t
3 .............ttt
4 .............ttt
5 ...............t
6 ............t...
7 ........f.......
8 ...........t....
9 ................
0 ................
1 ................

Turn = 486.
  0123456789012345
0 ........tt......
1 ........t.......
2 ...............t
3 .............ttt
4 .............ttt
5 ...............t
6 ............t...
7 ........f.......
8 ...........t....
9 ................
0 ................
1 ................

Turn = 648.
  0123456789012345
0 ........tt......
1 ........t.......
2 ...............t
3 .............ttt
4 .............ttt
5 ...............t
6 ............t...
7 ........f.......
8 ...........t....
9 ................
0 ................
1 ................

Turn = 810.
  0123456789012345
0 ........tt......
1 ........t.......
2 ...............t
3 .............ttt
4 .............ttt
5 ...............t
6 ............t...
7 ........f.......
8 ...........t....
9 ................
0 ................
1 ................

Turn = 972.
  0123456789012345
0 ........tt......
1 ........t.......
2 ...............t
3 .............ttt
4 .............ttt
5 ...............t
6 ............t...
7 ........f.......
8 ...........t....
9 ................
0 ................
1 ................

Turn = 1134.
  0123456789012345
0 ........tt......
1 ........t.......
2 ...............t
3 .............ttt
4 .............ttt
5 ...............t
6 ............t...
7 ........f.......
8 ...........t....
9 ................
0 ................
1 ................

Turn = 1296.
  0123456789012345
0 ........tt......
1 ........t.......
2 ...............t
3 .............ttt
4 .............ttt
5 ...............t
6 ............t...
7 ........f.......
8 ...........t....
9 ................
0 ................
1 ................

Turn = 1458.
  0123456789012345
0 ........tt......
1 ........t.......
2 ...............t
3 .............ttt
4 .............ttt
5 ...............t
6 ............t...
7 ........f.......
8 ...........t....
9 ................
0 ................
1 ................

*** Darwin 18x10 ***
Turn = 0.
  0123456789
0 ...f......
1 ..........
2 ..........
3 ..........
4 ..........
5 .h........
6 .h........
7 ........r.
8 ......r.f.
9 .....t..h.
0 ..........
1 ..........
2 ..........
3 ..r.......
4 ..........
5 ..........
6 ..........
7 r.f....f..

Turn = 66.
  0123456789
0 r.........
1 ..........
2 ..........
3 ..........
4 ..........
5 ..........
6 r.........
7 ..........
8 ......t..r
9 r....rt...
0 ..........
1 .....r....
2 .....r....
3 ..........
4 .....r....
5 ..r.......
6 ..........
7 r.........

Turn = 132.
  0123456789
0 ........r.
1 ....r..r.r
2 ......r..r
3 ........r.
4 ..........
5 ..........
6 ..........
7 r.........
8 ..........
9 ..........
0 .rr.......
1 ..........
2 ..........
3 ..........
4 ..........
5 ..........
6 ..........
7 r........r

Turn = 198.
  0123456789
0 r........r
1 r.....r...
2 ..........
3 ..........
4 ..........
5 .........r
6 ......r...
7 ..........
8 ..........
9 ..........
0 r.........
1 ..........
2 rrr.......
3 ..........
4 ......r...
5 ..........
6 ..........
7 .........r

Turn = 264.
  0123456789
0 ..........
1 ..........
2 ..........
3 ..........
4 ..........
5 ..........
6 r.........
7 r......r..
8 ..........
9 ..........
0 ..r......r
1 ..........
2 ..........
3 ..r....r..
4 ..........
5 ..........
6 ..........
7 r...r.r.rr

Turn = 330.
  0123456789
0 ...r..r...
1 ........r.
2 ....rr....
3 ......r...
4 .......r.r
5 ..........
6 ..........
7 ...r......
8 ....r.....
9 ....r.....
0 ..........
1 ..........
2 ..........
3 ..........
4 ..........
5 ..........
6 ..........
7 .r........

Turn = 396.
  0123456789
0 rrr.......
1 r.........
2 r.........
3 ..........
4 ..........
5 ..........
6 ..........
7 ...r......
8 ...r......
9 ..........
0 .........r
1 ..........
2 ..........
3 ..........
4 ..........
5 r.........
6 .r........
7 .r..r.....

Turn = 462.
  0123456789
0 ........r.
1 ..........
2 .....r....
3 ......rr..
4 ......r...
5 .........r
6 .....r...r
7 ........r.
8 ..........
9 ..........
0 ..........
1 ..........
2 ..........
3 ..........
4 ........r.
5 ..........
6 r.........
7 .......r..

Turn = 528.
  0123456789
0 .......r..
1 ..........
2 ..........
3 .........r
4 .........r
5 ..........
6 ..........
7 ........r.
8 r.........
9 .rr.......
0 ..........
1 ..........
2 ..........
3 ..........
4 ..........
5 ..........
6 .......r..
7 r.....rrr.

Turn = 594.
  0123456789
0 ......r...
1 ..........
2 ..........
3 ........r.
4 ..........
5 .r........
6 ..........
7 .........r
8 r.........
9 ..........
0 ..........
1 .r........
2 ..........
3 ..........
4 ..........
5 ..r.....r.
6 .........r
7 .rr......r

Turn = 660.
  0123456789
0 .r...r....
1 ..........
2 ...r......
3 r.........
4 ..........
5 r.........
6 .r........
7 ........r.
8 ..........
9 ..........
0 ..........
1 .........r
2 ..........
3 r.........
4 ..........
5 ..........
6 ..........
7 r.r......r

Turn = 726.
  0123456789
0 .r.r.r....
1 ........r.
2 rr........
3 ..........
4 .r........
5 ..........
6 ..........
7 ..........
8 ..........
9 ..........
0 .r........
1 ..........
2 ......r...
3 ......r...
4 ..........
5 ..........
6 ..........
7 .rr.......

Turn = 792.
  0123456789
0 r........r
1 ..........
2 .....r....
3 .....r....
4 .......r..
5 .......r..
6 .......r..
7 ..........
8 ..........
9 ..........
0 ..........
1 ..........
2 ..........
3 ..........
4 ........rr
5 ..........
6 .......r..
7 .r......r.

Turn = 858.
  0123456789
0 ..........
1 ..........
2 r.r.......
3 ..........
4 ..........
5 ..........
6 ..........
7 ...r......
8 ..........
9 .........r
0 ..........
1 ..........
2 ..........
3 ........r.
4 r.........
5 ..........
6 ......r...
7 .r...rrr.r

*** Darwin 16x4 ***
Turn = 0.
  0123
0 ....
1 ....
2 ....
3 ...t
4 ....
5 ....
6 ....
7 ....
8 ....
9 ....
0 ....
1 ....
2 ....
3 ....
4 ....
5 t...

Turn = 25.
  0123
0 ....
1 ....
2 ....
3 ...t
4 ....
5 ....
6 ....
7 ....
8 ....
9 ....
0 ....
1 ....
2 ....
3 ....
4 ....
5 t...

Turn = 50.
  0123
0 ....
1 ....
2 ....
3 ...t
4 ....
5 ....
6 ....
7 ....
8 ....
9 ....
0 ....
1 ....
2 ....
3 ....
4 ....
5 t...

Turn = 75.
  0123
0 ....
1 ....
2 ....
3 ...t
4 ....
5 ....
6 ....
7 ....
8 ....
9 ....
0 ....
1 ....
2 ....
3 ....
4 ....
5 t...

Turn = 100.
  0123
0 ....
1 ....
2 ....
3 ...t
4 ....
5 ....
6 ....
7 ....
8 ....
9 ....
0 ....
1 ....
2 ....
3 ....
4 ....
5 t...

Turn = 125.
  0123
0 ....
1 ....
2 ....
3 ...t
4 ....
5 ....
6 ....
7 ....
8 ....
9 ....
0 ....
1 ....
2 ....
3 ....
4 ....
5 t...

Turn = 150.
  0123
0 ....
1 ....
2 ....
3 ...t
4 ....
5 ....
6 ....
7 ....
8 ....
9 ....
0 ....
1 ....
2 ....
3 ....
4 ....
5 t...

Turn = 175.
  0123
0 ....
1 ....
2 ....
3 ...t
4 ....
5 ....
6 ....
7 ....
8 ....
9 ....
0 ....
1 ....
2 ....
3 ....
4 ....
5 t...

Turn = 200.
  0123
0 ....
1 ....
2 ....
3 ...t
4 ....
5 ....
6 ....
7 ....
8 ....
9 ....
0 ....
1 ....
2 ....
3 ....
4 ....
5 t...

Turn = 225.
  0123
0 ....
1 ....
2 ....
3 ...t
4 ....
5 ....
6 ....
7 ....
8 ....
9 ....
0 ....
1 ....
2 ....
3 ....
4 ....
5 t...

Turn = 250.
  0123
0 ....
1 ....
2 ....
3 ...t
4 ....
5 ....
6 ....
7 ....
8 ....
9 ....
0 ....
1 ....
2 ....
3 ....
4 ....
5 t...

Turn = 275.
  0123
0 ....
1 ....
2 ....
3 ...t
4 ....
5 ....
6 ....
7 ....
8 ....
9 ....
0 ....
1 ....
2 ....
3 ....
4 ....
5 t...

Turn = 300.
  0123
0 ....
1 ....
2 ....
3 ...t
4 ....
5 ....
6 ....
7 ....
8 ....
9 ....
0 ....
1 ....
2 ....
3 ....
4 ....
5 t...

Turn = 325.
  0123
0 ....
1 ....
2 ....
3 ...t
4 ....
5 ....
6 ....
7 ....
8 ....
9 ....
0 ....
1 ....
2 ....
3 ....
4 ....
5 t...

Turn = 350.
  0123
0 ....
1 ....
2 ....
3 ...t
4 ....
5 ....
6 ....
7 ....
8 ....
9 ....
0 ....
1 ....
2 ....
3 ....
4 ....
5 t...

Turn = 375.
  0123
0 ....
1 ....
2 ....
3 ...t
4 ....
5 ....
6 ....
7 ....
8 ....
9 ....
0 ....
1 ....
2 ....
3 ....
4 ....
5 t...

Turn = 400.
  0123
0 ....
1 ....
2 ....
3 ...t
4 ....
5 ....
6 ....
7 ....
8 ....
9 ....
0 ....
1 ....
2 ....
3 ....
4 ....
5 t...

Turn = 425.
  0123
0 ....
1 ....
2 ....
3 ...t
4 ....
5 ....
6 ....
7 ....
8 ....
9 ....
0 ....
1 ....
2 ....
3 ....
4 ....
5 t...

Turn = 450.
  0123
0 ....
1 ....
2 ....
3 ...t
4 ....
5 ....
6 ....
7 ....
8 ....
9 ....
0 ....
1 ....
2 ....
3 ....
4 ....
5 t...

Turn = 475.
  0123
0 ....
1 ....
2 ....
3 ...t
4 ....
5 ....
6 ....
7 ....
8 ....
9 ....
0 ....
1 ....
2 ....
3 ....
4 ....
5 t...

Turn = 500.
  0123
0 ....
1 ....
2 ....
3 ...t
4 ....
5 ....
6 ....
7 ....
8 ....
9 ....
0 ....
1 ....
2 ....
3 ....
4 ....
5 t...

Turn = 525.
  0123
0 ....
1 ....
2 ....
3 ...t
4 ....
5 ....
6 ....
7 ....
8 ....
9 ....
0 ....
1 ....
2 ....
3 ....
4 ....
5 t...

Turn = 550.
  0123
0 ....
1 ....
2 ....
3 ...t
4 ....
5 ....
6 ....
7 ....
8 ....
9 ....
0 ....
1 ....
2 ....
3 ....
4 ....
5 t...

Turn = 575.
  0123
0 ....
1 ....
2 ....
3 ...t
4 ....
5 ....
6 ....
7 ....
8 ....
9 ....
0 ....
1 ....
2 ....
3 ....
4 ....
5 t...

Turn = 600.
  0123
0 ....
1 ....
2 ....
3 ...t
4 ....
5 ....
6 ....
7 ....
8 ....
9 ....
0 ....
1 ....
2 ....
3 ....
4 ....
5 t...

Turn = 625.
  0123
0 ....
1 ....
2 ....
3 ...t
4 ....
5 ....
6 ....
7 ....
8 ....
9 ....
0 ....
1 ....
2 ....
3 ....
4 ....
5 t...

Turn = 650.
  0123
0 ....
1 ....
2 ....
3 ...t
4 ....
5 ....
6 ....
7 ....
8 ....
9 ....
0 ....
1 ....
2 ....
3 ....
4 ....
5 t...

Turn = 675.
  0123
0 ....
1 ....
2 ....
3 ...t
4 ....
5 ....
6 ....
7 ....
8 ....
9 ....
0 ....
1 ....
2 ....
3 ....
4 ....
5 t...

Turn = 700.
  0123
0 ....
1 ....
2 ....
3 ...t
4 ....
5 ....
6 ....
7 ....
8 ....
9 ....
0 ....
1 ....
2 ....
3 ....
4 ....
5 t...

Turn = 725.
  0123
0 ....
1 ....
2 ....
3 ...t
4 ....
5 ....
6 ....
7 ....
8 ....
9 ....
0 ....
1 ....
2 ....
3 ....
4 ....
5 t...

Turn = 750.
  0123
0 ....
1 ....
2 ....
3 ...t
4 ....
5 ....
6 ....
7 ....
8 ....
9 ....
0 ....
1 ....
2 ....
3 ....
4 ....
5 t...

Turn = 775.
  0123
0 ....
1 ....
2 ....
3 ...t
4 ....
5 ....
6 ....
7 ....
8 ....
9 ....
0 ....
1 ....
2 ....
3 ....
4 ....
5 t...

Turn = 800.
  0123
0 ....
1 ....
2 ....
3 ...t
4 ....
5 ....
6 ....
7 ....
8 ....
9 ....
0 ....
1 ....
2 ....
3 ....
4 ....
5 t...

Turn = 825.
  0123
0 ....
1 ....
2 ....
3 ...t
4 ....
5 ....
6 ....
7 ....
8 ....
9 ....
0 ....
1 ....
2 ....
3 ....
4 ....
5 t...

Turn = 850.
  0123
0 ....
1 ....
2 ....
3 ...t
4 ....
5 ....
6 ....
7 ....
8 ....
9 ....
0 ....
1 ....
2 ....
3 ....
4 ....
5 t...

Turn = 875.
  0123
0 ....
1 ....
2 ....
3 ...t
4 ....
5 ....
6 ....
7 ....
8 ....
9 ....
0 ....
1 ....
2 ....
3 ....
4 ....
5 t...

Turn = 900.
  0123
0 ....
1 ....
2 ....
3 ...t
4 ....
5 ....
6 ....
7 ....
8 ....
9 ....
0 ....
1 ....
2 ....
3 ....
4 ....
5 t...

Turn = 925.
  0123
0 ....
1 ....
2 ....
3 ...t
4 ....
5 ....
6 ....
7 ....
8 ....
9 ....
0 ....
1 ....
2 ....
3 ....
4 ....
5 t...

Turn = 950.
  0123
0 ....
1 ....
2 ....
3 ...t
4 ....
5 ....
6 ....
7 ....
8 ....
9 ....
0 ....
1 ....
2 ....
3 ....
4 ....
5 t...

Turn = 975.
  0123
0 ....
1 ....
2 ....
3 ...t
4 ....
5 ....
6 ....
7 ....
8 ....
9 ....
0 ....
1 ....
2 ....
3 ....
4 ....
5 t...

Turn = 1000.
  0123
0 ....
1 ....
2 ....
3 ...t
4 ....
5 ....
6 ....
7 ....
8 ....
9 ....
0 ....
1 ....
2 ....
3 ....
4 ....
5 t...

*** Darwin 6x7 ***
Turn = 0.
  0123456
0 .......
1 tr.rhr.
2 ...t..r
3 .....t.
4 .......
5 ......h

Turn = 152.
  0123456
0 rrr...r
1 .rr....
2 ...r...
3 .......
4 .......
5 ....r.r

Turn = 304.
  0123456
0 ....r..
1 .r....r
2 r......
3 ..rr...
4 .r.....
5 r...r..

*** Darwin 5x10 ***
Turn = 0.
  0123456789
0 .........r
1 ...f.f....
2 ..........
3 .....f....
4 ..........

Turn = 74.
  0123456789
0 ..........
1 ...f.f....
2 ..........
3 .....f....
4 r.........

Turn = 148.
  0123456789
0 ..........
1 ...f.f....
2 ..........
3 .....f...r
4 ..........

Turn = 222.
  0123456789
0 .r........
1 ...f.f....
2 ..........
3 .....f....
4 ..........

Turn = 296.
  0123456789
0 .........r
1 ...f.f....
2 ..........
3 .....f....
4 ..........

Turn = 370.
  0123456789
0 ..........
1 ...f.f....
2 ..........
3 .....f....
4 .r........

Turn = 444.
  0123456789
0 ..........
1 ...f.f....
2 r.........
3 .....f....
4 ..........

Turn = 518.
  0123456789
0 r.........
1 ...f.f....
2 ..........
3 .....f....
4 ..........

Turn = 592.
  0123456789
0 ..........
1 ...f.f....
2 ..........
3 .....f....
4 .r........

Turn = 666.
  0123456789
0 .......r..
1 ...f.f....
2 ..........
3 .....f....
4 ..........

Turn = 740.
  0123456789
0 ..........
1 ...f.f....
2 ..........
3 .....f....
4 .....r....

Turn = 814.
  0123456789
0 ..........
1 ...f.f....
2 ..........
3 .....f....
4 .........r

Turn = 888.
  0123456789
0 ..........
1 ...f.f....
2 ..........
3 .....f....
4 r.........

Turn = 962.
  0123456789
0 .....r....
1 ...f.f....
2 ..........
3 .....f....
4 ..........

Turn = 1036.
  0123456789
0 ..........
1 ...f.f....
2 ..........
3 .....f....
4 ...r......

Turn = 1110.
  0123456789
0 r.........
1 ...f.f....
2 ..........
3 .....f....
4 ..........

Turn = 1184.
  0123456789
0 ..........
1 ...f.f....
2 ..........
3 .....f...r
4 ..........

Turn = 1258.
  0123456789
0 ..........
1 ...f.f....
2 ..........
3 .....f....
4 .........r

Turn = 1332.
  0123456789
0 .........r
1 ...f.f....
2 ..........
3 .....f....
4 ..........

Turn = 1406.
  0123456789
0 ..........
1 ...f.f....
2 ..........
3 .....f....
4 .........r

Turn = 1480.
  0123456789
0 .......r..
1 ...f.f....
2 ..........
3 .....f....
4 ..........

Turn = 1554.
  0123456789
0 .........r
1 ...f.f....
2 ..........
3 .....f....
4 ..........

Turn = 1628.
  0123456789
0 ..........
1 ...f.f....
2 ..........
3 .....f...r
4 ..........

*** Darwin 9x9 ***
Turn = 0.
  012345678
0 .........
1 .........
2 .........
3 .........
4 .........
5 ...f.t...
6 .........
7 .........
8 .........

Turn = 191.
  012345678
0 .........
1 .........
2 .........
3 .........
4 .........
5 ...f.t...
6 .........
7 .........
8 .........
