*** Darwin 18x44 ***
Turn = 0.
  01234567890123456789012345678901234567890123
0 ............................................
1 ..f.........................................
2 ............................................
3 ........................r...................
4 ............................................
5 ............................................
6 ............................................
7 ............................................
8 ............................................
9 ............................................
0 ..t.........................................
1 .....................t......................
2 ............................................
3 ............................................
4 ............................................
5 ..f.............h...........................
6 ............................................
7 ............................................

*** Darwin 27x50 ***
Turn = 0.
  01234567890123456789012345678901234567890123456789
0 ......................................t...........
1 ..................................................
2 ............................................f.....
3 ..................................................
4 ..................................................
5 ...............................h..................
6 ...............................t..................
7 .......t..........................................
8 ...........................................t......
9 ..................................................
0 .........................................t........
1 ............................................t.....
2 ..................................................
3 ............................................r.....
4 ............................h.........t...........
5 .................................f................
6 ................r.................................
7 ..h...................h...........................
8 ...........h.....................................t
9 ..................................................
0 ..................................................
1 ..................................................
2 ..................................................
3 .................f................................
4 ..................................r...............
5 ..................................................
6 ..................................................

Turn = 15.
  01234567890123456789012345678901234567890123456789
0 ............................h.........t...........
1 ..................................................
2 ..h.........................................f.....
3 ..................................................
4 ..................................................
5 ................h.................................
6 ...............................t..................
7 .......t..........................................
8 ...........................................t......
9 ..................................r...............
0 .........................................t........
1 ............................................t.....
2 ..................................................
3 ..................................................
4 ......................................t...........
5 .................................f................
6 ..................................................
7 ..................................................
8 ..................................................
9 ..................................................
0 ..................................................
1 .................................................r
2 ..................................................
3 .................f...............................r
4 ..................................................
5 ..................................................
6 ...........h........r.h...........................

Turn = 30.
  01234567890123456789012345678901234567890123456789
0 ..h.........................h.........r.r.........
1 ..................................................
2 ............................................f.....
3 ..................................................
4 ..................................................
5 .h................................................
6 ...............................t..................
7 .......t..........................................
8 ...........................................t......
9 ..................................................
0 .........................................t........
1 ............................................t.....
2 ..................................................
3 ..................................................
4 ......................r...............t...........
5 .................................f................
6 ..................................................
7 ..................................................
8 .................................................r
9 ..................................................
0 ..................................................
1 ..................................................
2 ..................................................
3 .................f................................
4 ..................................................
5 .........................................r........
6 ...........rr.....................................

Turn = 45.
  01234567890123456789012345678901234567890123456789
0 ..h...................r.....h.....................
1 ..................................................
2 ............................................f...r.
3 .................................................r
4 .................................................r
5 h.................................................
6 ...............................t..................
7 .......t..........................................
8 ...........................................t......
9 ..................................................
0 .........................................t........
1 ............................................t.....
2 ..................................................
3 ..................................................
4 ......................................t...........
5 .................................f................
6 ..................................................
7 ..................................................
8 ..................................................
9 ..................................................
0 ..................................................
1 ..................................................
2 ..................................................
3 r................f................................
4 ..................................................
5 ..........................r.......................
6 ..........................r.......................

Turn = 60.
  01234567890123456789012345678901234567890123456789
0 ..h....r....................h.....................
1 ..................................................
2 ............................................f.....
3 ...................................r..............
4 ..................................r...............
5 h.................................................
6 ...............................t..................
7 .......t..........................................
8 r..........................................t......
9 ..................................................
0 .........................................t........
1 ............................................t.....
2 ..................................................
3 ..................................................
4 ......................................t...........
5 .................................f................
6 .................................................r
7 ..................................................
8 ..................................................
9 ..................................................
0 ..................................................
1 ..................................................
2 ..................................................
3 .................f................................
4 ..................................................
5 ...........r......................................
6 .........................................r........

Turn = 75.
  01234567890123456789012345678901234567890123456789
0 ............................h.....................
1 ......r...........................................
2 ............................................f.....
3 ....................r.............................
4 r..................r..............................
5 ..................................................
6 .......t.......................t..................
7 .......t..........................................
8 ...........................................t......
9 ...r..............................................
0 .........................................t........
1 ............................................t.....
2 ..................................................
3 ..................................................
4 ......................................t...........
5 .................................f................
6 ..................................................
7 ..................................................
8 ..................................................
9 ..................................................
0 ..................................................
1 ..................................................
2 r.................................................
3 .................f................................
4 ..................................................
5 ..................................................
6 ............................................r..r..

*** Darwin 21x37 ***
Turn = 0.
  0123456789012345678901234567890123456
0 .....................................
1 .........h...........................
2 .....................................
3 .....................................
4 .....................................
5 .....................................
6 .....................................
7 .....................................
8 .....................................
9 .....................................
0 .....................................
1 .....................................
2 .....................................
3 .....................f...............
4 .....................................
5 .......................r.............
6 .....................................
7 .....................................
8 .....................r...............
9 ..........................f..........
0 .....................................

Turn = 118.
  0123456789012345678901234567890123456
0 ....................................r
1 ....................................r
2 .....................................
3 .....................................
4 .....................................
5 .....................................
6 .....................................
7 .....................................
8 .....................................
9 .....................................
0 .....................................
1 .....................................
2 .....................................
3 .....................f...............
4 .....................................
5 .....................................
6 .....................................
7 .....................................
8 .....................................
9 ..........................f..........
0 ...............r.....................

Turn = 236.
  0123456789012345678901234567890123456
0 r....................................
1 .....................................
2 .....................................
3 .....................................
4 .....................................
5 .....................................
6 .....................................
7 .....................................
8 .....................................
9 .....................................
0 .....................................
1 .....................................
2 .....................................
3 .....................f...............
4 .....................................
5 .....................................
6 .....................................
7 .....................................
8 .....................................
9 ...............r..........f..........
0 ...............r.....................

*** Darwin 43x9 ***
Turn = 0.
  012345678
0 ....h....
1 .........
2 ........r
3 ....h....
4 .........
5 .........
6 .........
7 .........
8 .........
9 .........
0 .........
1 .........
2 ..f......
3 h.....r..
4 ......t..
5 .........
6 .........
7 .........
8 ..h......
9 .........
0 ........t
1 .........
2 .........
3 h.....t..
4 .........
5 .........
6 .........
7 .........
8 .........
9 .h.......
0 .........
1 .........
2 .......f.
3 .........
4 .....f...
5 h........
6 r........
7 .........
8 .........
9 ....h....
0 .........
1 .........
2 .....h...

Turn = 34.
  012345678
0 ....h....
1 .........
2 .........
3 .........
4 .........
5 .........
6 .........
7 .........
8 .........
9 .........
0 .........
1 .........
2 ..f......
3 ......t..
4 ......t.r
5 .........
6 .........
7 r........
8 .r.......
9 .........
0 ........r
1 ........r
2 ........r
3 ......t..
4 .........
5 .........
6 .........
7 .........
8 .........
9 .........
0 .........
1 .........
2 .......f.
3 .........
4 r....f...
5 .........
6 r........
7 ....h....
8 .........
9 .........
0 ........r
1 .........
2 ......r..

Turn = 68.
  012345678
0 .........
1 .........
2 .........
3 r........
4 r........
5 .........
6 .........
7 .........
8 .....r...
9 .........
0 .........
1 ....r....
2 ..f......
3 ......t..
4 ......t.r
5 ........r
6 .........
7 .........
8 r........
9 .........
0 .........
1 r........
2 .........
3 .........
4 .........
5 .........
6 .........
7 r........
8 ........r
9 .........
0 .........
1 .........
2 r........
3 .........
4 .....f...
5 .........
6 .......r.
7 .........
8 .........
9 .........
0 .........
1 ........r
2 ....h....

Turn = 102.
  012345678
0 ....r....
1 ........r
2 .........
3 .........
4 .........
5 .........
6 ........r
7 .........
8 .........
9 .........
0 ........r
1 .........
2 ..f......
3 ....rr...
4 ......t..
5 .........
6 .........
7 .........
8 .........
9 .........
0 .........
1 ......r..
2 ......r..
3 ...rr....
4 .........
5 r.......r
6 .........
7 .........
8 ........r
9 .......r.
0 .........
1 .........
2 .........
3 .........
4 .........
5 .........
6 .........
7 .........
8 .........
9 .........
0 .........
1 .........
2 r.....r..

Turn = 136.
  012345678
0 ........r
1 .........
2 .........
3 .........
4 .r.......
5 .........
6 .........
7 .........
8 .........
9 .........
0 .........
1 r........
2 ..f......
3 .........
4 ......tt.
5 .........
6 ........r
7 .........
8 .........
9 ........r
0 .........
1 .........
2 .........
3 .........
4 .........
5 .........
6 .r.......
7 .........
8 .........
9 r........
0 .........
1 .........
2 .r.......
3 .........
4 .........
5 r.r.....r
6 .........
7 ...r.....
8 ........r
9 .........
0 ........r
1 .........
2 r........

Turn = 170.
  012345678
0 .........
1 ....r....
2 .........
3 .........
4 rr.......
5 .........
6 .........
7 r........
8 .........
9 ........r
0 .........
1 .........
2 ..f......
3 .........
4 ......tt.
5 ........r
6 .........
7 ........r
8 ........r
9 .........
0 .........
1 r........
2 ..r......
3 .........
4 ..r......
5 r........
6 .r.......
7 .........
8 .........
9 .........
0 .........
1 .........
2 ........r
3 .........
4 .........
5 .........
6 .........
7 .........
8 .........
9 .........
0 .........
1 .........
2 r........

Turn = 204.
  012345678
0 ..r.....r
1 ...r...rr
2 .......r.
3 ....r....
4 .........
5 .........
6 .r.......
7 .........
8 r..r.....
9 .........
0 .........
1 .........
2 ..f......
3 .........
4 .........
5 .........
6 .........
7 .........
8 r........
9 .........
0 .........
1 .........
2 .........
3 .........
4 .........
5 .........
6 .........
7 .........
8 .........
9 .........
0 .........
1 .........
2 ..r......
3 .r.......
4 .........
5 .......r.
6 r.....r..
7 .........
8 .........
9 .........
0 .........
1 r........
2 .........

Turn = 238.
  012345678
0 r........
1 .........
2 .........
3 .........
4 .........
5 .........
6 ........r
7 .........
8 .........
9 ....r....
0 .........
1 .........
2 ..f......
3 .........
4 ........r
5 .........
6 .........
7 .........
8 .........
9 .........
0 .........
1 .........
2 .........
3 r........
4 .........
5 .........
6 .........
7 r........
8 .........
9 .........
0 .........
1 r......r.
2 ..r......
3 ........r
4 .........
5 .........
6 ...r.....
7 ....r....
8 r........
9 r........
0 .r.......
1 ........r
2 ...r.....

*** Darwin 48x20 ***
Turn = 0.
  01234567890123456789
0 ....................
1 ...f................
2 ....................
3 ....................
4 ............r.......
5 ....f...............
6 ......h.............
7 ....................
8 ....................
9 ....................
0 ....................
1 ....................
2 ....................
3 ....................
4 ....................
5 ....................
6 ....................
7 .............f......
8 ....................
9 ....................
0 ........r...........
1 ....................
2 ....................
3 ....................
4 ....................
5 ....................
6 ....................
7 ....................
8 ....................
9 ....................
0 ....................
1 ....................
2 ....................
3 ....................
4 ....................
5 ....................
6 ....................
7 .t..................
8 ....f...............
9 ....................
0 ....................
1 ....................
2 ..........f.........
3 ..........r.........
4 ....................
5 ....................
6 ....................
7 ....................

Turn = 76.
  01234567890123456789
0 ....................
1 ...f................
2 r...................
3 ....................
4 ....................
5 ....f...............
6 ....................
7 r...................
8 ....................
9 ....................
0 ....................
1 ....................
2 ....................
3 ....................
4 ....................
5 ....................
6 ....................
7 .............f......
8 ....................
9 ....................
0 ....................
1 ....................
2 ....................
3 ....................
4 ....................
5 ....................
6 ....................
7 ....................
8 ....................
9 ....................
0 ....................
1 ....................
2 ....................
3 ....................
4 ....................
5 ...................r
6 ....................
7 .t.................r
8 ....f...............
9 ....................
0 ....................
1 ....................
2 ..........f.........
3 ....................
4 ....................
5 ....................
6 ....................
7 ....................

Turn = 152.
  01234567890123456789
0 ....................
1 ...f................
2 ....................
3 ....................
4 ....................
5 ....f...............
6 ....................
7 ....................
8 ....................
9 ....................
0 ....................
1 ....................
2 ....................
3 ....................
4 ....................
5 ....................
6 ....................
7 .............f......
8 ....................
9 ....................
0 ....................
1 ....................
2 ....................
3 r...................
4 ....................
5 ...................r
6 ....................
7 ....................
8 ....................
9 ....................
0 ....................
1 ....................
2 ....................
3 ....................
4 ....................
5 ....................
6 ....................
7 .t..................
8 ....f...............
9 ....................
0 ....................
1 ....................
2 ..........f.........
3 ....................
4 ....................
5 ...................r
6 r...................
7 ....................

*** Darwin 15x45 ***
Turn = 0.
  012345678901234567890123456789012345678901234
0 .....................h.......................
1 .............................r...............
2 .............................h...............
3 ........r...................h................
4 ......f.h......................t.............
5 .............................................
6 .............................................
7 ............................f................
8 ............r................................
9 ....t..................t...................t.
0 .............................................
1 .............................................
2 ..r..........................................
3 .......................f...................r.
4 .............................................

Turn = 194.
  012345678901234567890123456789012345678901234
0 .......................r.......r.............
1 .......................r........r.........r..
2 .............................................
3 .............................................
4 .............................................
5 ..................................r.........r
6 r..................................r.........
7 .............................................
8 .............................r.......r.......
9 .............................................
0 .............................................
1 .............................................
2 .............................................
3 .............................................
4 ................................r...r.r...rr.

*** Darwin 42x18 ***
Turn = 0.
  012345678901234567
0 ..................
1 ..................
2 ..................
3 ..................
4 ..................
5 ..................
6 ..................
7 ..................
8 ..................
9 ..................
0 ..................
1 ..................
2 .............r....
3 ..................
4 ..................
5 ..................
6 ..................
7 ..................
8 ..................
9 ..................
0 ..................
1 ..................
2 ..................
3 ..................
4 ..................
5 ..................
6 ..................
7 ..................
8 ..................
9 ..................
0 ..................
1 ..t...............
2 ..................
3 ..................
4 ..................
5 ..................
6 ..................
7 ..................
8 ..................
9 ..................
0 ..................
1 ..................

Turn = 92.
  012345678901234567
0 ....r.............
1 ..................
2 ..................
3 ..................
4 ..................
5 ..................
6 ..................
7 ..................
8 ..................
9 ..................
0 ..................
1 ..................
2 ..................
3 ..................
4 ..................
5 ..................
6 ..................
7 ..................
8 ..................
9 ..................
0 ..................
1 ..................
2 ..................
3 ..................
4 ..................
5 ..................
6 ..................
7 ..................
8 ..................
9 ..................
0 ..................
1 ..t...............
2 ..................
3 ..................
4 ..................
5 ..................
6 ..................
7 ..................
8 ..................
9 ..................
0 ..................
1 ..................

*** Darwin 16x24 ***
Turn = 0.
  012345678901234567890123
0 ..........h.............
1 ...r..h.................
2 ........................
3 ..t.....................
4 ........h...............
5 ........................
6 ........................
7 ....................t...
8 ..........r.............
9 ............f...........
0 ...............r........
1 ........................
2 ........r.............r.
3 ............h.........h.
4 .................r......
5 ........................

*** Darwin 19x47 ***
Turn = 0.
  01234567890123456789012345678901234567890123456
0 ...............................................
1 ...............................................
2 ...............................................
3 ...............................................
4 ...............................................
5 ...............................................
6 ...............................................
7 ...................h...........................
8 .........................................f.....
9 ...............................................
0 ............t..................................
1 ...................r...........................
2 ...............................................
3 ...............................................
4 ...............................................
5 ...............................................
6 ...............................................
7 ...............................................
8 ........h......................................

*** Darwin 8x35 ***
Turn = 0.
  01234567890123456789012345678901234
0 ........f...r.....r............r...
1 ....................h..............
2 ..............r.t.........t........
3 .........r............h............
4 ...........................r.......
5 ......h............................
6 ..r.h.........f...........f..t.....
7 ...................................

Turn = 31.
  01234567890123456789012345678901234
0 .......r......................rr..r
1 .............................r..r..
2 ................t.........t........
3 ...................................
4 ...................................
5 h..................................
6 ..............f...........f..t.....
7 rr..................h........t...r.

Turn = 62.
  01234567890123456789012345678901234
0 r....................rr.r.........r
1 ...................................
2 ..............r.r..................
3 ...............rrr...............rr
4 ...........................r......r
5 ...................................
6 ...................................
7 .........r.....r...r...............

Turn = 93.
  01234567890123456789012345678901234
0 .r..........................rr.....
1 ...........................r.r.....
2 ..............................r....
3 ...r............................r..
4 r................................r.
5 ...................................
6 r..........r.......................
7 .....................r.r.rr..r.....

Turn = 124.
  01234567890123456789012345678901234
0 .....r.....r.r......rr.............
1 ...................................
2 rr........................r........
3 ........................r..........
4 r......................r...........
5 ..................................r
6 ......................r..........rr
7 .................r......r..........

Turn = 155.
  01234567890123456789012345678901234
0 r......r...r.....................r.
1 r...r..............................
2 ...................................
3 .........r.........................
4 ..r...............r................
5 ....r.....................r........
6 ....r..............................
7 r......rr..r...............r.......

Turn = 186.
  01234567890123456789012345678901234
0 r.r..r..r........r............rr...
1 ...............r...................
2 ........r..........rr..............
3 .r.................................
4 ...................................
5 ...................................
6 ...................................
7 r.........r.......r........r....r..

*** Darwin 47x23 ***
Turn = 0.
  01234567890123456789012
0 .......................
1 .......................
2 .......................
3 .......................
4 .......................
5 .......................
6 .......................
7 .......................
8 ......r.......r........
9 .......f...............
0 .......................
1 .......................
2 .......................
3 .......................
4 .......................
5 .......................
6 .......................
7 ............f..........
8 .......................
9 ...t...................
0 .......................
1 .......................
2 .......................
3 ...................fh..
4 .....................r.
5 .......................
6 .....................h.
7 .......................
8 .......................
9 .......................
0 .......................
1 .........h.............
2 .....................h.
3 .......................
4 .......................
5 ........t..............
6 ..............h........
7 .......................
8 .......................
9 .......................
0 ..h..........h.........
1 .......................
2 ..........h............
3 ...............t.......
4 .......................
5 .......................
6 .......................

Turn = 71.
  01234567890123456789012
0 ............r..........
1 .......................
2 .......................
3 .......................
4 .......................
5 .......................
6 .......................
7 .......................
8 .......................
9 .......f...............
0 .......................
1 .......................
2 .......................
3 .......................
4 .......................
5 .......................
6 .......................
7 ............f..........
8 .......................
9 ...t...................
0 .......................
1 .......................
2 .......................
3 r..................f...
4 .......................
5 .......................
6 .......................
7 .......................
8 .......................
9 .......................
0 ................r......
1 .......................
2 .......................
3 .......................
4 .......................
5 ........t..............
6 h......................
7 .......................
8 .....................rr
9 .......................
0 .....................hh
1 .......................
2 ...............t.......
3 ...............t.......
4 .......................
5 .......................
6 ....................rh.

Turn = 142.
  01234567890123456789012
0 .......................
1 .......................
2 .......................
3 .......................
4 .r.r...................
5 .......................
6 .......................
7 .......................
8 .......................
9 .......f...............
0 .......................
1 .r.....................
2 .......................
3 .......................
4 .......................
5 .......................
6 .......................
7 ............f..........
8 .....................r.
9 .......................
0 .......................
1 .......................
2 ........r..............
3 ...................f...
4 .......................
5 .......................
6 .......................
7 .......................
8 .......................
9 .......................
0 .......................
1 r....................r.
2 .......................
3 .......................
4 .......................
5 ........t..............
6 .......................
7 .......................
8 .......................
9 .......................
0 .......................
1 .......................
2 ...............t.......
3 ..............tt.......
4 ...............t.......
5 ........r..............
6 .......r...............

Turn = 213.
  01234567890123456789012
0 .......................
1 .......................
2 .......................
3 .......................
4 .......................
5 .......................
6 .......................
7 .......................
8 .......................
9 .......f...............
0 .......................
1 .......................
2 .......................
3 r......................
4 .......................
5 .......................
6 .......................
7 ............f..........
8 .......................
9 .......................
0 .......................
1 .....r.................
2 .......................
3 .......................
4 r......................
5 .......................
6 r......................
7 ...r...................
8 r...r..................
9 .......................
0 .......................
1 .......................
2 .......................
3 .......................
4 ......................r
5 ........t..............
6 ......................r
7 r....r.................
8 .......................
9 .......................
0 .......................
1 .......................
2 .......................
3 .......................
4 ....................r..
5 .......................
6 ...........r......r....

*** Darwin 10x27 ***
Turn = 0.
  012345678901234567890123456
0 ...........................
1 ...........................
2 ...........................
3 ....f......................
4 ...........................
5 ...........................
6 ...........................
7 ...........................
8 ...........................
9 ...........................

Turn = 34.
  012345678901234567890123456
0 ...........................
1 ...........................
2 ...........................
3 ....f......................
4 ...........................
5 ...........................
6 ...........................
7 ...........................
8 ...........................
9 ...........................

Turn = 68.
  012345678901234567890123456
0 ...........................
1 ...........................
2 ...........................
3 ....f......................
4 ...........................
5 ...........................
6 ...........................
7 ...........................
8 ...........................
9 ...........................

Turn = 102.
  012345678901234567890123456
0 ...........................
1 ...........................
2 ...........................
3 ....f......................
4 ...........................
5 ...........................
6 ...........................
7 ...........................
8 ...........................
9 ...........................

Turn = 136.
  012345678901234567890123456
0 ...........................
1 ...........................
2 ...........................
3 ....f......................
4 ...........................
5 ...........................
6 ...........................
7 ...........................
8 ...........................
9 ...........................

Turn = 170.
  012345678901234567890123456
0 ...........................
1 ...........................
2 ...........................
3 ....f......................
4 ...........................
5 ...........................
6 ...........................
7 ...........................
8 ...........................
9 ...........................

Turn = 204.
  012345678901234567890123456
0 ...........................
1 ...........................
2 ...........................
3 ....f......................
4 ...........................
5 ...........................
6 ...........................
7 ...........................
8 ...........................
9 ...........................

Turn = 238.
  012345678901234567890123456
0 ...........................
1 ...........................
2 ...........................
3 ....f......................
4 ...........................
5 ...........................
6 ...........................
7 ...........................
8 ...........................
9 ...........................

*** Darwin 28x36 ***
Turn = 0.
  012345678901234567890123456789012345
0 ....................................
1 ....................................
2 ....................................
3 ....................................
4 ....................................
5 ....................................
6 ....................................
7 ....................................
8 ....................................
9 ....................................
0 ....................................
1 ....................................
2 ....................................
3 ....................................
4 ....................................
5 ....................................
6 ....................................
7 ....................................
8 ....................................
9 ....................................
0 ....................................
1 ....................................
2 ....................................
3 ....................................
4 ....................................
5 ....................................
6 ....................................
7 ...............f....................

*** Darwin 18x26 ***
Turn = 0.
  01234567890123456789012345
0 .......h..................
1 ..........................
2 .....r....................
3 ...................f......
4 .......h..................
5 ........h.................
6 ..........................
7 ............t.............
8 .........................h
9 .h........................
0 ....r.....................
1 .....h....................
2 ..........................
3 .............t............
4 ..........................
5 ..t.......................
6 ............r.............
7 ..........................

*** Darwin 8x27 ***
Turn = 0.
  012345678901234567890123456
0 .............h.h...f......f
1 ........h..................
2 ...........................
3 ..........f................
4 .........t.................
5 ...........................
6 ...h.....r...r.............
7 ....h....h..............t.f

*** Darwin 31x18 ***
Turn = 0.
  012345678901234567
0 ..................
1 ..................
2 ..................
3 ..................
4 ..................
5 ..................
6 ....t.........h...
7 ..................
8 ...........h......
9 ..t...............
0 ..................
1 ................t.
2 ...r........h.....
3 ..................
4 ..................
5 ..................
6 ..................
7 ..................
8 .......h..........
9 ......r...........
0 ..................
1 ..................
2 ............f.....
3 ..................
4 ..................
5 ..................
6 ......h...........
7 ..................
8 ..................
9 ..................
0 ..................

Turn = 131.
  012345678901234567
0 ............r.....
1 ..................
2 ..................
3 ..................
4 ..................
5 ................r.
6 ....tt............
7 ..................
8 ..................
9 ..t...............
0 ..................
1 ...........r....t.
2 ................t.
3 ..................
4 ..................
5 ..................
6 ..................
7 ..................
8 ..................
9 ..................
0 ..................
1 ............h.....
2 ............f.....
3 ..................
4 ..................
5 ..................
6 ..................
7 ..................
8 ..................
9 ..................
0 r.................

*** Darwin 48x21 ***
Turn = 0.
  012345678901234567890
0 .....................
1 .....................
2 .....................
3 .....................
4 .....................
5 .....................
6 .....................
7 .....................
8 .....................
9 .....................
0 .....................
1 .....................
2 .....................
3 .....................
4 .....................
5 .....................
6 .....................
7 .....................
8 .....................
9 .....................
0 .....................
1 .....................
2 .........f...........
3 .....................
4 .....................
5 .....................
6 .....................
7 .....................
8 .....................
9 .....................
0 .....................
1 .....................
2 .....f...............
3 .....................
4 .....................
5 .....................
6 .....................
7 .....................
8 .....................
9 .....................
0 .....................
1 .....................
2 .....................
3 .....................
4 .....................
5 .....................
6 .....................
7 .....................

Turn = 57.
  012345678901234567890
0 .....................
1 .....................
2 .....................
3 .....................
4 .....................
5 .....................
6 .....................
7 .....................
8 .....................
9 .....................
0 .....................
1 .....................
2 .....................
3 .....................
4 .....................
5 .....................
6 .....................
7 .....................
8 .....................
9 .....................
0 .....................
1 .....................
2 .........f...........
3 .....................
4 .....................
5 .....................
6 .....................
7 .....................
8 .....................
9 .....................
0 .....................
1 .....................
2 .....f...............
3 .....................
4 .....................
5 .....................
6 .....................
7 .....................
8 .....................
9 .....................
0 .....................
1 .....................
2 .....................
3 .....................
4 .....................
5 .....................
6 .....................
7 .....................

Turn = 114.
  012345678901234567890
0 .....................
1 .....................
2 .....................
3 .....................
4 .....................
5 .....................
6 .....................
7 .....................
8 .....................
9 .....................
0 .....................
1 .....................
2 .....................
3 .....................
4 .....................
5 .....................
6 .....................
7 .....................
8 .....................
9 .....................
0 .....................
1 .....................
2 .........f...........
3 .....................
4 .....................
5 .....................
6 .....................
7 .....................
8 .....................
9 .....................
0 .....................
1 .....................
2 .....f...............
3 .....................
4 .....................
5 .....................
6 .....................
7 .....................
8 .....................
9 .....................
0 .....................
1 .....................
2 .....................
3 .....................
4 .....................
5 .....................
6 .....................
7 .....................

Turn = 171.
  012345678901234567890
0 .....................
1 .....................
2 .....................
3 .....................
4 .....................
5 .....................
6 .....................
7 .....................
8 .....................
9 .....................
0 .....................
1 .....................
2 .....................
3 .....................
4 .....................
5 .....................
6 .....................
7 .....................
8 .....................
9 .....................
0 .....................
1 .....................
2 .........f...........
3 .....................
4 .....................
5 .....................
6 .....................
7 .....................
8 .....................
9 .....................
0 .....................
1 .....................
2 .....f...............
3 .....................
4 .....................
5 .....................
6 .....................
7 .....................
8 .....................
9 .....................
0 .....................
1 .....................
2 .....................
3 .....................
4 .....................
5 .....................
6 .....................
7 .....................

*** Darwin 50x15 ***
Turn = 0.
  012345678901234
0 ...............
1 ...............
2 ...............
3 ...............
4 ...............
5 ...............
6 ...............
7 ...............
8 ...............
9 ...............
0 ...............
1 ...............
2 ...............
3 ...............
4 ...............
5 ...............
6 ...............
7 ...............
8 ...............
9 ...............
0 ...............
1 ...............
2 ...............
3 ...............
4 ...............
5 ...............
6 ......f........
7 ...............
8 ...............
9 ...............
0 ...............
1 ...............
2 ...............
3 ...............
4 ...............
5 ...............
6 ...............
7 ...............
8 .........f.....
9 ...............
0 .............t.
1 ...............
2 ...............
3 ...............
4 ...............
5 ...............
6 ...............
7 ...............
8 ...............
9 ...............

*** Darwin 25x5 ***
Turn = 0.
  01234
0 .....
1 .....
2 .....
3 .....
4 .....
5 .....
6 .....
7 .....
8 .....
9 .....
0 .....
1 .....
2 .....
3 .....
4 .....
5 .....
6 .....
7 .....
8 .....
9 .r...
0 .....
1 ....r
2 .....
3 .....
4 .....

Turn = 58.
  01234
0 .....
1 .....
2 .....
3 .....
4 .....
5 .....
6 .....
7 .....
8 .....
9 .....
0 .....
1 .....
2 .....
3 .....
4 r....
5 .....
6 .....
7 .....
8 ..r..
9 .....
0 .....
1 .....
2 .....
3 .....
4 .....

Turn = 116.
  01234
0 ...r.
1 .....
2 .....
3 .....
4 .....
5 .....
6 .....
7 .....
8 .....
9 .....
0 .....
1 .....
2 .....
3 .....
4 .....
5 .....
6 r....
7 .....
8 .....
9 .....
0 .....
1 .....
2 .....
3 .....
4 .....

Turn = 174.
  01234
0 .....
1 .....
2 .....
3 .....
4 .....
5 .....
6 .....
7 .....
8 .....
9 .....
0 r....
1 .....
2 .....
3 .....
4 .....
5 .....
6 .....
7 .....
8 r....
9 .....
0 .....
1 .....
2 .....
3 .....
4 .....

*** Darwin 24x49 ***
Turn = 0.
  0123456789012345678901234567890123456789012345678
0 .................................................
1 .................................................
2 .....................f...........................
3 ......................h..........................
4 .................................................
5 .................................................
6 .................................................
7 ....r............................................
8 .................................................
9 .................................................
0 .................................................
1 ................................................t
2 .................................................
3 .................................................
4 .h...............................................
5 .................................................
6 .................................................
7 .................................................
8 .................................................
9 .................................................
0 ...f.............................................
1 ..............................................h..
2 .................................................
3 .................................................

Turn = 83.
  0123456789012345678901234567890123456789012345678
0 .................................................
1 .................................................
2 .....................f...........................
3 .................................................
4 .................................................
5 .................................................
6 ................................................r
7 .................................................
8 .................................................
9 .................................................
0 .................................................
1 .................................................
2 .................................................
3 .................................................
4 .................................................
5 .................................................
6 ................................................r
7 .................................................
8 .................................................
9 .................................................
0 ...f.............................................
1 h................................................
2 .................................................
3 .h....................h..........................

Turn = 166.
  0123456789012345678901234567890123456789012345678
0 .................................................
1 .................................................
2 .....................f...........................
3 ................................................r
4 .................................................
5 .................................................
6 .................................................
7 .................................................
8 .................................................
9 .................................................
0 .................................................
1 .................................................
2 .................................................
3 .................................................
4 .................................................
5 .................................................
6 r................................................
7 .................................................
8 .................................................
9 .................................................
0 ...f.............................................
1 .....r...........................................
2 .................................................
3 .h....................h..........................

*** Darwin 21x40 ***
Turn = 0.
  0123456789012345678901234567890123456789
0 ........................................
1 ........................................
2 ....................r...................
3 ........................................
4 ......................................t.
5 ........................................
6 ........................................
7 ......................................r.
8 ........................................
9 ........................................
0 ...............h........................
1 ........................................
2 ......................................t.
3 ........................................
4 ........................................
5 ........................................
6 ........................................
7 ..h......h..............................
8 ........................................
9 ........................................
0 ...t........................h...........
