26

13 98
13
h 5 75 n
r 6 69 w
t 1 30 w
f 7 6 e
h 6 61 w
h 11 62 w
t 3 30 w
f 6 6 w
f 1 83 n
h 11 31 e
h 7 74 w
r 8 17 s
t 3 71 w
243 24

37 35
4
t 28 14 s
h 1 32 n
f 23 12 n
t 15 20 n
209 182

70 62
1
r 63 46 s
262 79

5 86
9
f 2 60 n
t 4 82 w
r 0 17 s
h 3 76 e
h 0 10 n
h 0 14 e
r 1 75 s
r 3 46 s
r 1 42 e
47 189

85 87
3
t 68 84 s
r 84 52 e
t 4 43 s
38 92

27 55
11
t 3 9 w
h 10 34 n
h 2 38 e
t 26 30 e
t 1 15 n
h 7 2 s
h 10 39 w
r 15 10 e
r 16 14 n
h 11 11 s
t 4 42 w
119 191

70 67
7
t 68 56 w
f 14 54 n
t 52 12 e
f 8 17 n
r 53 29 n
t 19 55 n
r 44 66 s
131 11

65 45
4
f 57 6 n
r 50 32 s
h 30 33 e
t 42 35 w
317 183

27 42
2
h 2 23 n
f 15 41 w
129 147

56 22
1
h 2 5 n
238 12

96 65
2
r 55 62 w
t 47 15 e
107 17

73 30
11
r 65 14 n
f 27 4 e
f 14 20 w
t 55 11 s
r 68 6 w
t 35 29 w
h 68 8 w
r 29 18 e
r 26 8 n
r 56 18 e
h 27 6 s
177 180

65 79
6
r 13 5 s
t 37 62 n
h 44 72 w
t 11 43 s
t 46 26 e
h 46 57 e
111 136

62 86
3
t 61 8 e
h 56 27 e
t 30 83 e
313 176

83 44
12
r 49 33 w
r 69 25 w
t 40 25 e
f 37 26 n
h 71 3 n
t 79 26 s
t 16 0 n
f 34 14 w
t 53 3 s
r 50 20 n
t 46 27 e
t 78 8 w
287 24

90 6
8
r 60 2 n
f 68 0 s
t 68 4 w
t 64 1 n
r 15 5 n
t 15 5 w
r 37 1 e
r 28 1 e
121 40

87 51
10
f 35 2 n
t 19 45 w
t 40 38 w
h 35 30 e
h 36 12 n
r 42 30 w
r 31 46 s
f 47 6 s
r 45 16 e
f 39 27 s
203 22

61 44
4
h 37 36 s
f 49 27 w
r 45 19 e
t 3 6 n
197 135

68 95
6
t 26 89 s
h 29 17 e
t 59 65 s
f 64 29 w
f 10 5 s
t 22 3 e
83 159

17 98
6
f 10 37 w
h 3 84 n
t 13 36 s
r 9 1 n
t 12 48 e
f 4 24 s
139 190

21 8
7
f 12 5 n
h 19 6 n
r 20 3 e
r 6 5 w
t 11 5 n
h 19 3 w
r 8 5 s
302 103

7 16
13
t 2 2 s
t 0 10 n
t 6 0 s
r 3 8 e
f 1 14 w
f 2 11 s
r 5 8 e
f 1 13 n
h 3 8 s
f 1 0 n
h 4 4 n
r 0 10 w
f 5 10 e
74 132

6 12
6
r 2 10 w
h 1 0 s
t 2 2 w
t 2 8 w
r 0 2 s
r 2 11 s
319 33

92 98
1
f 39 40 n
296 98

3 42
13
r 2 14 w
r 1 32 w
t 1 7 n
f 2 11 w
f 0 24 s
f 0 2 w
r 0 12 s
h 2 34 e
t 1 7 n
f 2 31 w
h 2 26 s
h 2 38 s
r 0 40 s
300 129

98 91
13
t 86 53 s
r 70 43 w
h 7 88 e
h 64 86 n
h 34 18 e
r 80 39 e
f 92 64 s
t 21 26 s
h 22 80 w
t 26 15 n
t 21 47 n
t 37 48 n
t 11 29 n
14 167
