20

37 21
13
h 29 12 s
f 22 8 w
r 6 3 n
r 22 19 w
r 25 15 n
h 8 3 e
f 20 7 w
r 19 8 e
t 13 4 e
r 23 16 n
h 13 18 n
r 25 13 w
h 20 3 e
522 32

36 49
8
h 5 46 e
r 6 20 w
h 6 47 n
r 29 21 n
t 28 9 s
t 2 25 w
t 17 20 w
f 16 8 s
153 45

11 27
1
t 1 12 w
283 42

28 3
12
t 25 0 e
t 1 1 e
f 6 0 e
h 16 0 n
f 24 2 w
t 11 0 s
t 8 0 n
r 0 0 w
t 2 2 n
h 10 2 w
f 3 2 e
f 1 0 w
504 29

9 15
1
h 5 12 w
123 36

35 44
7
f 9 12 n
h 1 16 w
r 0 1 e
h 19 5 e
r 10 0 n
f 18 9 w
h 21 12 s
668 40

10 50
3
t 6 32 n
f 3 35 s
t 6 28 s
472 31

37 33
7
r 26 29 e
f 12 14 e
r 8 7 s
t 33 8 w
h 4 3 e
r 9 2 e
f 3 14 n
421 33

18 33
7
r 10 13 s
r 6 23 e
f 7 25 w
h 7 3 n
h 10 14 e
h 2 6 s
r 4 32 s
244 42

34 12
9
r 11 9 n
f 3 11 n
t 16 1 w
r 28 5 e
r 9 3 e
t 27 10 e
f 15 7 n
r 10 1 w
f 17 1 w
745 42

6 40
11
t 3 8 n
h 2 2 w
r 2 33 e
h 1 13 e
h 3 9 n
h 3 0 n
r 5 10 w
t 3 8 e
t 4 39 e
t 5 21 s
t 4 33 e
142 37

18 46
10
h 11 22 s
f 7 8 w
h 13 4 w
f 9 21 s
f 0 35 w
f 0 45 s
t 4 40 n
f 17 15 w
h 10 1 w
h 14 38 e
196 31

4 2
6
r 2 0 w
r 3 0 e
r 1 0 w
h 1 0 n
h 3 1 w
h 3 1 e
113 27

32 3
7
f 18 1 e
t 31 1 n
f 13 2 s
f 16 1 s
r 23 1 s
r 21 2 s
f 19 2 n
91 49

23 7
5
h 6 4 e
f 9 0 n
h 22 3 s
f 8 0 s
f 10 3 s
674 32

24 6
4
f 3 4 e
h 20 4 e
t 9 5 s
f 6 0 e
678 28

46 13
1
f 0 1 s
575 32

18 5
12
t 5 0 e
r 12 2 n
t 6 4 s
t 13 2 w
r 17 4 s
t 3 1 n
r 14 1 s
f 3 3 w
r 2 3 e
t 8 3 n
r 14 3 n
t 13 1 n
627 36

49 48
7
h 8 27 w
t 36 27 n
h 37 6 s
r 46 23 n
r 26 35 w
h 10 27 n
t 28 15 w
647 46

21 24
11
f 13 4 e
f 19 7 w
h 4 14 s
r 1 5 n
r 5 12 e
h 5 10 e
t 10 19 e
h 16 20 w
f 6 6 s
f 9 1 e
f 3 7 e
574 44
